<?xml version="1.0" encoding="utf-8"?>
<!-- Generator: Adobe Illustrator 23.0.3, SVG Export Plug-In . SVG Version: 6.00 Build 0)  -->
<svg version="1.1" id="Layer_1" xmlns="http://www.w3.org/2000/svg" xmlns:xlink="http://www.w3.org/1999/xlink" x="0px" y="0px"
	 viewBox="0 0 37 37" style="enable-background:new 0 0 37 37;" xml:space="preserve">
<style type="text/css">
	.st0{fill:#288AD6;}
</style>
<path class="st0" d="M18.5,0.4c-10,0-18.1,8.1-18.1,18.1s8.1,18.1,18.1,18.1s18.1-8.1,18.1-18.1S28.5,0.4,18.5,0.4z M19.8,23.1
	l-3.1,3.1c-0.7,0.7-1.8,1.2-2.9,1.2c-2.3,0-4.1-1.8-4.1-4.1c0-1.1,0.4-2.2,1.2-2.9l3.7-3.8c0.7-0.7,1.8-1.2,2.9-1.2
	c0.8,0,1.6,0.2,2.2,0.7c0.2,0.2,0.5,0.3,0.7,0.6c0.2,0.2,0.3,0.6,0.3,0.9c0,0.2-0.2,0.6-0.3,0.7c-0.5,0.4-1.2,0.4-1.7,0
	c-0.7-0.7-1.8-0.7-2.5,0l-3.8,3.8c-0.7,0.7-0.7,1.8,0,2.5s1.8,0.7,2.5,0l2.3-2.3c0.1-0.1,0.2-0.1,0.3-0.1c0.6,0.2,1.2,0.3,1.9,0.3
	h0.1c0.2,0,0.3,0.2,0.3,0.3C19.9,23,19.8,23,19.8,23.1z M26.2,16.7l-3.8,3.8c-0.5,0.5-1.2,0.9-1.9,1.1l0,0h-0.2h-0.1h-0.2H20
	c-0.1,0-0.2,0-0.2,0h-0.2l0,0h-0.2c-0.2,0-0.3,0-0.4-0.1c-0.1,0-0.2-0.1-0.3-0.1l-0.2-0.1c-0.1,0-0.2,0-0.2-0.1
	c0-0.1-0.2,0.2-0.3,0.2s-0.2-0.1-0.2-0.1c-0.4-0.2-0.8-0.5-1.2-0.8c-0.2-0.2-0.3-0.6-0.3-0.9c0-0.2,0.2-0.6,0.3-0.7
	c0.5-0.4,1.2-0.4,1.7,0c0.7,0.7,1.8,0.7,2.5,0l1-1l0,0l2.8-2.7c0.7-0.7,0.7-1.8,0-2.5s-1.8-0.7-2.5,0l-2.3,2.2
	c-0.1,0.1-0.2,0.1-0.3,0.1c-0.6-0.2-1.2-0.3-1.9-0.3h-0.1c-0.1,0-0.2-0.1-0.2-0.2c-0.1-0.1,0-0.2,0.1-0.3l3.1-3.1
	c1.7-1.7,4.2-1.7,5.9,0S27.8,15.1,26.2,16.7z"/>
</svg>
