<svg width="37" height="37" viewBox="0 0 37 37" fill="none" xmlns="http://www.w3.org/2000/svg">
<circle cx="18.9109" cy="18.0891" r="18.0891" fill="#A50064"/>
<g clip-path="url(#clip0)">
<path d="M23.9287 22.2701C23.2386 22.2701 22.6165 22.538 22.1443 22.9694L15.6742 19.1963C15.7241 18.992 15.7559 18.7786 15.7559 18.5606C15.7559 18.3427 15.7241 18.1293 15.6742 17.925L22.0762 14.1882C22.5621 14.6423 23.2114 14.9237 23.9287 14.9237C25.4316 14.9237 26.653 13.7024 26.653 12.1995C26.653 10.6966 25.4316 9.47522 23.9287 9.47522C22.4258 9.47522 21.2045 10.6966 21.2045 12.1995C21.2045 12.4174 21.2363 12.6308 21.2862 12.8351L14.8842 16.5719C14.3984 16.1178 13.7491 15.8363 13.0317 15.8363C11.5288 15.8363 10.3074 17.0577 10.3074 18.5606C10.3074 20.0635 11.5288 21.2849 13.0317 21.2849C13.7491 21.2849 14.3984 21.0034 14.8842 20.5493L21.3543 24.3224C21.3089 24.5131 21.2816 24.7129 21.2816 24.9172C21.2816 26.3792 22.4667 27.5643 23.9287 27.5643C25.3908 27.5643 26.5758 26.3792 26.5758 24.9172C26.5758 23.4552 25.3908 22.2701 23.9287 22.2701Z" fill="white"/>
</g>
<defs>
<clipPath id="clip0">
<rect x="9.43564" y="9.47522" width="18.0891" height="18.0891" fill="white"/>
</clipPath>
</defs>
</svg>
