<svg xmlns="http://www.w3.org/2000/svg" xmlns:xlink="http://www.w3.org/1999/xlink" width="170" height="170" viewBox="0 0 170 170">
    <defs>
        <linearGradient id="prefix__a" x1="29.021%" x2="29.021%" y1="17.195%" y2="98.012%">
            <stop offset="0%" stop-color="#F7F7FF"/>
            <stop offset="100%" stop-color="#D0D0FF"/>
        </linearGradient>
        <linearGradient id="prefix__c" x1="91.273%" x2="50%" y1="-24.466%" y2="96.975%">
            <stop offset="0%" stop-opacity="0"/>
            <stop offset="100%"/>
        </linearGradient>
        <linearGradient id="prefix__f" x1="100%" x2="50%" y1="-23.667%" y2="96.798%">
            <stop offset="0%" stop-opacity="0"/>
            <stop offset="100%"/>
        </linearGradient>
        <linearGradient id="prefix__h" x1="50.001%" x2="50.001%" y1="-146.263%" y2="165.188%">
            <stop offset="0%" stop-color="#CFD1FB"/>
            <stop offset="100%" stop-color="#EFEFFF"/>
        </linearGradient>
        <linearGradient id="prefix__i" x1="50.001%" x2="50.001%" y1="-146.263%" y2="165.188%">
            <stop offset="0%" stop-color="#CFD1FB"/>
            <stop offset="100%" stop-color="#EFEFFF"/>
        </linearGradient>
        <linearGradient id="prefix__j" x1="56.223%" x2="40.56%" y1="0%" y2="119.413%">
            <stop offset="0%" stop-color="#A48EF2"/>
            <stop offset="100%" stop-color="#7A66E2"/>
        </linearGradient>
        <linearGradient id="prefix__q" x1="6.702%" x2="6.702%" y1="4.741%" y2="98.527%">
            <stop offset="0%" stop-color="#FEB4C3"/>
            <stop offset="100%" stop-color="#F97A97"/>
        </linearGradient>
        <linearGradient id="prefix__r" x1="50%" x2="50%" y1="0%" y2="100%">
            <stop offset="0%" stop-color="#9E89F0"/>
            <stop offset="100%" stop-color="#8B77E9"/>
        </linearGradient>
        <linearGradient id="prefix__s" x1="50%" x2="50%" y1="0%" y2="100%">
            <stop offset="0%" stop-color="#A08AF1"/>
            <stop offset="100%" stop-color="#8470E6"/>
        </linearGradient>
        <path id="prefix__b" d="M7.977 1.48c-.725.143-1.435.383-2.107.722l-1.262-.91-1.272 1.109-1.272 1.11.8 1.311c-.418.613-.739 1.272-.961 1.956L.345 7l-.09 1.655-.09 1.656 1.525.38c.147.702.394 1.39.745 2.043l-.94 1.224L2.64 15.19l1.145 1.232 1.354-.776c.632.406 1.311.717 2.017.933l.229 1.51 1.708.087 1.708.088.392-1.48c.725-.142 1.435-.381 2.107-.72l1.263.91 1.271-1.11 1.272-1.108-.801-1.313c.42-.613.74-1.271.963-1.955l1.557-.222.09-1.656.09-1.656-1.524-.379c-.147-.703-.395-1.391-.745-2.043l.939-1.223-1.144-1.233-1.144-1.232-1.354.776c-.632-.406-1.312-.717-2.018-.933l-.23-1.51L10.078.09 8.37.003 7.977 1.48zm-1.51 10.371c-1.55-1.668-1.41-4.238.313-5.74 1.721-1.501 4.373-1.366 5.923.303 1.549 1.67 1.409 4.24-.313 5.74-.802.7-1.804 1.044-2.804 1.044-1.148 0-2.29-.454-3.12-1.347z"/>
        <path id="prefix__e" d="M7.143.149L5.74.295l-.118 1.249c-.585.213-1.127.503-1.616.855L2.855 1.82l-.884 1.062-.885 1.062.83.965c-.251.538-.428 1.112-.52 1.71l-1.235.378.15 1.356.152 1.357 1.29.114c.221.565.52 1.09.885 1.563l-.6 1.114 1.1.856 1.097.855.997-.802c.556.242 1.15.414 1.768.501l.39 1.197 1.402-.146 1.402-.147.118-1.249c.584-.213 1.127-.502 1.616-.854l1.151.579.884-1.063.885-1.062-.83-.965c.252-.537.429-1.111.519-1.71l1.237-.378-.15-1.355-.152-1.356-1.29-.115c-.221-.566-.521-1.09-.885-1.563l.598-1.115-1.098-.856L11.7.9l-.998.803c-.556-.244-1.15-.415-1.767-.503L8.545.003 7.142.149zM4.53 7.913C4.326 6.077 5.699 4.428 7.597 4.23c1.898-.197 3.602 1.13 3.807 2.967.204 1.836-1.168 3.485-3.067 3.683-.125.013-.25.02-.374.02-1.743 0-3.242-1.272-3.432-2.987z"/>
        <path id="prefix__k" d="M0.154 0.216L10.735 0.216 10.735 12.157 0.154 12.157z"/>
        <path id="prefix__m" d="M0.218 0.173L10.43 0.173 10.43 10.666 0.218 10.666z"/>
        <path id="prefix__o" d="M0 0.058L10.461 0.058 10.461 14.687 0 14.687z"/>
    </defs>
    <g fill="none" fill-rule="evenodd">
        <path fill="url(#prefix__a)" d="M152.845 68.092l-3.388-2.798s-15.247-9.732-15.79-20.71c-.541-10.98-7.3-12.453-23.456-13.147-13.66-.583-29.45-2.235-42.14 3.996-5.54 2.731-12.141 4.118-18.846 3.959l-14.73-.37c-7.05-.171-13.975 1.376-19.658 4.394C6.364 47.906-2.873 56.17.847 70.224c.612 2.416.94 4.865.98 7.32l.155 5.972c.135 5.244 5.921 9.476 13.008 9.587l110.621 1.745c11.366.18 22.327-3.2 30.131-9.31 2.093-1.645 3.228-3.809 3.169-6.042-.097-4.199-2.246-8.237-6.066-11.404z" opacity=".368" transform="translate(0 26.101)"/>
        <g>
            <g transform="translate(0 26.101) matrix(-1 0 0 1 160.145 32.029) translate(0 13.238)">
                <mask id="prefix__d" fill="#fff">
                    <use xlink:href="#prefix__b"/>
                </mask>
                <path fill="url(#prefix__c)" d="M7.977 1.48c-.725.143-1.435.383-2.107.722l-1.262-.91-1.272 1.109-1.272 1.11.8 1.311c-.418.613-.739 1.272-.961 1.956L.345 7l-.09 1.655-.09 1.656 1.525.38c.147.702.394 1.39.745 2.043l-.94 1.224L2.64 15.19l1.145 1.232 1.354-.776c.632.406 1.311.717 2.017.933l.229 1.51 1.708.087 1.708.088.392-1.48c.725-.142 1.435-.381 2.107-.72l1.263.91 1.271-1.11 1.272-1.108-.801-1.313c.42-.613.74-1.271.963-1.955l1.557-.222.09-1.656.09-1.656-1.524-.379c-.147-.703-.395-1.391-.745-2.043l.939-1.223-1.144-1.233-1.144-1.232-1.354.776c-.632-.406-1.312-.717-2.018-.933l-.23-1.51L10.078.09 8.37.003 7.977 1.48zm-1.51 10.371c-1.55-1.668-1.41-4.238.313-5.74 1.721-1.501 4.373-1.366 5.923.303 1.549 1.67 1.409 4.24-.313 5.74-.802.7-1.804 1.044-2.804 1.044-1.148 0-2.29-.454-3.12-1.347z" mask="url(#prefix__d)" opacity=".223" transform="rotate(-90 9.585 9.133)"/>
            </g>
            <g transform="translate(0 26.101) matrix(-1 0 0 1 160.145 32.029) translate(11.131)">
                <mask id="prefix__g" fill="#fff">
                    <use xlink:href="#prefix__e"/>
                </mask>
                <path fill="url(#prefix__f)" d="M7.143.149L5.74.295l-.118 1.249c-.585.213-1.127.503-1.616.855L2.855 1.82l-.884 1.062-.885 1.062.83.965c-.251.538-.428 1.112-.52 1.71l-1.235.378.15 1.356.152 1.357 1.29.114c.221.565.52 1.09.885 1.563l-.6 1.114 1.1.856 1.097.855.997-.802c.556.242 1.15.414 1.768.501l.39 1.197 1.402-.146 1.402-.147.118-1.249c.584-.213 1.127-.502 1.616-.854l1.151.579.884-1.063.885-1.062-.83-.965c.252-.537.429-1.111.519-1.71l1.237-.378-.15-1.355-.152-1.356-1.29-.115c-.221-.566-.521-1.09-.885-1.563l.598-1.115-1.098-.856L11.7.9l-.998.803c-.556-.244-1.15-.415-1.767-.503L8.545.003 7.142.149zM4.53 7.913C4.326 6.077 5.699 4.428 7.597 4.23c1.898-.197 3.602 1.13 3.807 2.967.204 1.836-1.168 3.485-3.067 3.683-.125.013-.25.02-.374.02-1.743 0-3.242-1.272-3.432-2.987z" mask="url(#prefix__g)" opacity=".322" transform="rotate(-90 7.967 7.555)"/>
            </g>
        </g>
        <g>
            <path fill="url(#prefix__h)" d="M98.285 11.161c-.445-.32-.984-.508-1.567-.508-1.515 0-2.743 1.015-2.743 3.047 0 2.03 1.062 2.75 2.359 2.75 0 0 10.27.098 10.58 0 1.213-.057 2.392-1.3 2.392-3.331 0-2.03-1.51-3.482-3.375-3.482-.56 0-1.087.141-1.552.39-.605-.934-1.637-1.55-2.808-1.55-1.599 0-2.937 1.146-3.286 2.684" transform="translate(0 26.101) translate(32.029 6.16)"/>
            <path fill="url(#prefix__i)" d="M54.343 2.21c-.355-.258-.785-.411-1.25-.411-1.21 0-2.19.82-2.19 2.463 0 1.642.848 2.224 1.883 2.224 0 0 8.196.08 8.445 0 .967-.046 1.909-1.051 1.909-2.693 0-1.642-1.207-2.816-2.694-2.816-.447 0-.868.115-1.239.316C58.724.537 57.9.039 56.965.039c-1.275 0-2.343.927-2.622 2.171" transform="translate(0 26.101) translate(32.029 6.16)"/>
            <path fill="url(#prefix__h)" d="M4.31 15.15c-.445-.32-.984-.508-1.567-.508C1.228 14.642 0 15.657 0 17.689c0 2.03 1.062 2.75 2.359 2.75 0 0 10.27.098 10.58 0 1.213-.057 2.392-1.3 2.392-3.331 0-2.03-1.511-3.482-3.375-3.482-.56 0-1.087.141-1.552.39-.605-.934-1.637-1.55-2.809-1.55-1.598 0-2.936 1.146-3.285 2.684" transform="translate(0 26.101) translate(32.029 6.16)"/>
        </g>
        <path fill="#FEB5C4" d="M48.723 41.884h61.982c3.866 0 7 3.134 7 7 0 .178-.006.356-.02.534l-2.98 38.97c-.278 3.649-3.32 6.467-6.979 6.467H45.744c-3.866 0-7-3.134-7-7 0-.178.007-.356.02-.533l2.98-38.972c.278-3.648 3.32-6.466 6.98-6.466z" transform="translate(0 26.101)"/>
        <g>
            <path fill="#8671E6" fill-rule="nonzero" d="M16.288 19.98c0 2.57-.364 5.337-1.097 8.317-1.205 3.964-3.366 6.205-7 8.127l-.24.126c-.204.105-.418.213-.653.33l-.993.485-.457.223-.324.16c-1.683.843-2.62 1.451-3.382 2.279C1.172 41.079.67 42.393.64 44.184l-.001.164H0c0-2.04.565-3.566 1.68-4.775.853-.927 1.875-1.58 3.724-2.496l1.325-.647.428-.211c.224-.112.428-.216.625-.32l.118-.061c3.494-1.848 5.534-3.964 6.677-7.72.688-2.8 1.044-5.416 1.07-7.846l.002-.291h.64z" transform="translate(0 26.101) matrix(-1 0 0 1 70.217 0)"/>
            <path fill="#8570E6" d="M15.57 22.418L17.246 24.367 13.893 24.367z" transform="translate(0 26.101) matrix(-1 0 0 1 70.217 0)"/>
            <path fill="url(#prefix__j)" d="M16.049 23.392c5.424 0 9.82-7.6 9.82-13.219C25.87 4.555 21.474 0 16.05 0S6.228 4.555 6.228 10.173c0 5.619 4.397 13.22 9.82 13.22z" transform="translate(0 26.101) matrix(-1 0 0 1 70.217 0)"/>
        </g>
        <g>
            <g transform="translate(0 26.101) matrix(-1 0 0 1 38.188 18.478) translate(17.992 13.135)">
                <mask id="prefix__l" fill="#fff">
                    <use xlink:href="#prefix__k"/>
                </mask>
                <path fill="#6E78F1" d="M8.491 12.157L4.36 10.895c-.263.53-.665 1.33-1.342 1.257-.025-.002-.05-.015-.077-.035C2.15 11.525.581 3.485.154 1.224c.463.184 1.086.272 1.847.02.6-.196 1-.56 1.255-1.028h3.06c2.406.157 3.544.53 4.097 1.812.786 1.827.126 5.604-1.922 10.13" mask="url(#prefix__l)"/>
            </g>
            <path fill="#6E78F1" d="M24.314 72.971v3.406h-5.642c-.41 0-.68-.357-.68-.73 0-.023 0-.043.002-.066.015-.162.08-.324.209-.453l2.105-2.157h4.006z" transform="translate(0 26.101) matrix(-1 0 0 1 38.188 18.478)"/>
            <path fill="#5E5C8C" d="M24.314 41.35v31.621h-4.178l-2.377-30.46h-.904v30.46H12.68l-2.468-31.62h14.102z" transform="translate(0 26.101) matrix(-1 0 0 1 38.188 18.478)"/>
            <path fill="#6E78F1" d="M25.286 25.344v16.007H9.847l.57-19.194-2.801 2.064-.483-.437-.085-.077-3.48-3.142-.164-.196 4.16-4.652c2.218-1.975 4.512-2.44 7.468-2.582.149.466.373.905.632 1.195.607.685.594 6.032.823 7.79.438 3.333 1.89 7.088 3.87 7.326.354.045.722-.025 1.103-.225 1.09-.573 1.938-3.19 3.826-3.877" transform="translate(0 26.101) matrix(-1 0 0 1 38.188 18.478)"/>
            <path fill="#6570D6" d="M25.772 25.297V41.35H20.91V29.41c.348.045.711-.025 1.087-.226 1.075-.575 1.912-3.2 3.775-3.888" transform="translate(0 26.101) matrix(-1 0 0 1 38.188 18.478)"/>
            <g transform="translate(0 26.101) matrix(-1 0 0 1 38.188 18.478) translate(14.102)">
                <mask id="prefix__n" fill="#fff">
                    <use xlink:href="#prefix__m"/>
                </mask>
                <path fill="#5E5C8C" d="M10.43 4.243c0 1.578-1.053 4.604-3.043 6.423 0-.597-.029-1.2-.029-1.75l.446-.41c.323-.302.47-.755.377-1.19-.072-.334-.23-.654-.553-.683-.705-.068-.644 1.775-1.197 1.927-.557.154 0-2.038 0-2.038l-.514-.701c.011-.069.015-.137.015-.205 0-.73-.525-1.366-1.261-1.5-.823-.146-1.847-.358-2.673-.617-.378-.115-.712-.24-.967-.374C-.349 2.402.266.476 1.121.21c.855-.262 2.192.967 3.111.77.92-.198 1.84-.418 2.497-.198.658.219.59 1.225 1.402 1.513.808.284 2.299.37 2.299 1.948" mask="url(#prefix__n)"/>
            </g>
            <path fill="#FFD2BE" d="M22.437 8.28l-.46.4c0 .535.03 1.123.03 1.704 0 .948.074 2.803.074 2.803s-.686.662-1.684.83c-.512.087-1.024.112-1.454.073-.26-.02-.49-.063-.671-.133l-.115-.577s.36-3.185.36-3.3c0-.085-.394-.876-1.358-1.275-.007 0-.011-.003-.019-.007-.107-.041-.222-.08-.348-.112l-.03-.01c-.233-.056-.493-.091-.779-.091-.137 0-.263.014-.381.038-.22-2.387.496-4.406.841-5.218.853.252 1.91.459 2.76.602.76.13 1.301.75 1.301 1.46 0 .066-.003.133-.014.2l.53.682s-.575 2.135 0 1.984c.571-.147.508-1.942 1.235-1.876.334.028.497.34.571.665.097.423-.055.865-.39 1.158" transform="translate(0 26.101) matrix(-1 0 0 1 38.188 18.478)"/>
            <path fill="#6E78F1" d="M16.533 72.971v3.406h-5.64c-.435 0-.712-.4-.679-.796.015-.162.079-.322.209-.453l2.105-2.157h4.005z" transform="translate(0 26.101) matrix(-1 0 0 1 38.188 18.478)"/>
            <g transform="translate(0 26.101) matrix(-1 0 0 1 38.188 18.478) translate(0 20.432)">
                <mask id="prefix__p" fill="#fff">
                    <use xlink:href="#prefix__o"/>
                </mask>
                <path fill="#FFD2BE" d="M9.151 9.994c-.557-.057-1.049.13-1.049.13-.255-.184-.496-.368-.715-.54C6.211 8.478 4.946 6.13 4.445 5.478l1.936-2.2.489-.467L3.834.058s-.022.018-.061.054c-.525.49-4.383 4.12-3.69 5.55C.248 6 2.041 7.974 2.44 8.435c1.193 1.155 2.55 2.325 3.446 3.073.596.5.988.813.988.813l.255.454c.01.018.018.032.032.05.233.382.668.594 1.12.55.51-.046 1.09-.064 1.125.101.069.296-1.218.594-1.15.825.065.23 1.093.55 2.088.284l.117-3.963c-.29-.327-.965-.593-1.31-.629" mask="url(#prefix__p)"/>
            </g>
            <path fill="#EDBCA8" d="M18.765 14.108c-.253-.022-.479-.064-.656-.135-.073-.372-.113-.585-.113-.585s.352-3.225.352-3.342c0-.085-.385-.886-1.329-1.29.875.323 1.536.723 1.83 1.16.247.368.04 2.898-.084 4.192M6.322 23.413l-.46.424c-.471-.547-1.676-1.956-2.458-2.87l.058-.049 2.86 2.495z" transform="translate(0 26.101) matrix(-1 0 0 1 38.188 18.478)"/>
            <path fill="#FFD2BE" d="M26.259 24.553c-.057.123-.128.262-.214.422-.29.535-.751 1.256-1.441 1.994-.641.69-1.478 1.39-2.554 1.966-2.502 1.341-4.802-2.889-5.31-6.832-.226-1.767.189-7.445-.41-8.133-.256-.291-.477-.732-.624-1.2-.204-.624-.275-1.294-.123-1.726.125-.349.503-1.079.125-1.229-.375-.149-.488.985-1.014.848-.257-.065-.122-2.056 1.272-2.353.113-.025.233-.04.364-.04 1.735 0 2.406 1.413 2.406 1.528 0 .117-.342 3.372-.342 3.372s.037.215.109.591c.436 2.338 2.835 10.942 2.835 10.942s.616-.509 1.078-.992c.091-.097.175-.192.248-.284l.002.017 3.593 1.11z" transform="translate(0 26.101) matrix(-1 0 0 1 38.188 18.478)"/>
            <path fill="#6570D6" d="M21.906 23.826l.469.146c-.272.557-.687 1.396-1.386 1.32-.026-.003-.051-.016-.08-.037.195-1.254.623-3.703 1.146-4.926.699-1.634 1.708-2.29 1.772-2.33l-1.92 5.827z" transform="translate(0 26.101) matrix(-1 0 0 1 38.188 18.478)"/>
            <path fill="#EDBCA8" d="M26.259 25.254c-.065.153-.146.329-.244.53l-4.133-1.59c.104-.122.199-.24.283-.357l.002.022 4.092 1.395z" transform="translate(0 26.101) matrix(-1 0 0 1 38.188 18.478)"/>
            <path fill="#54557D" d="M24.314 41.351L24.314 72.971 23.068 72.971 22.043 41.922 10.212 41.351z" transform="translate(0 26.101) matrix(-1 0 0 1 38.188 18.478)"/>
            <path fill="#54557D" d="M16.533 42.323L16.533 72.971 15.742 72.971 15.561 42.323z" transform="translate(0 26.101) matrix(-1 0 0 1 38.188 18.478)"/>
            <path fill="#CCE6F4" d="M10.214 75.89h6.32v.487h-5.642c-.434 0-.71-.245-.678-.487M24.314 75.89v.487h-5.642c-.41 0-.68-.219-.68-.446 0-.014 0-.027.002-.04h6.32z" transform="translate(0 26.101) matrix(-1 0 0 1 38.188 18.478)"/>
            <path fill="#EDBCA8" d="M21.396 9.243c-.138.19-.486.162-.486.162s.138.286.243.323c.105.036.243-.485.243-.485" transform="translate(0 26.101) matrix(-1 0 0 1 38.188 18.478)"/>
            <path fill="#6570D6" d="M10.698 18.973L10.698 22.182 8.209 24.324 7.78 23.871z" transform="translate(0 26.101) matrix(-1 0 0 1 38.188 18.478)"/>
        </g>
        <g>
            <path fill="#F97C99" d="M6.597 0h14.677c1.676 0 3.174 1.045 3.754 2.617l.917 2.491H71.47c2.805 0 5.235 1.944 5.853 4.68l7.256 32.167c.73 3.232-1.3 6.444-4.532 7.173-.433.098-.876.147-1.32.147H15.357c-2.856 0-5.316-2.012-5.881-4.81L1.696 5.99C1.149 3.284 2.899.646 5.606.099 5.932.033 6.264 0 6.596 0z" transform="translate(0 26.101) translate(27.101 46.812)"/>
            <path fill="url(#prefix__q)" d="M6.142 1.45H20.68c1.664 0 3.155 1.03 3.742 2.587l.895 2.37h45.267c2.793 0 5.217 1.928 5.846 4.65l7.134 30.867c.746 3.229-1.266 6.451-4.495 7.197-.443.103-.896.154-1.35.154H14.791c-2.845 0-5.298-1.997-5.875-4.783L1.246 7.464c-.56-2.704 1.178-5.35 3.882-5.91.333-.07.673-.105 1.014-.105z" transform="translate(0 26.101) translate(27.101 46.812)"/>
        </g>
        <g transform="translate(0 26.101) rotate(-37 94.108 -84.849)">
            <g transform="translate(18.264 46.376)">
                <rect width="7.988" height="18.41" x="3.55" fill="#715ADB" rx="2"/>
                <rect width="15.088" height="37.696" y="10.52" fill="url(#prefix__r)" rx="2"/>
            </g>
            <path fill="url(#prefix__s)" d="M25.375.01c13.977 0 25.308 11.338 25.308 25.325S39.353 50.66 25.375 50.66C11.398 50.66.067 39.322.067 25.335S11.397.009 25.375.009zm0 5.24c-11.085 0-20.072 8.992-20.072 20.085s8.987 20.086 20.072 20.086c11.085 0 20.072-8.993 20.072-20.086 0-11.093-8.987-20.086-20.072-20.086z"/>
            <ellipse cx="25.034" cy="25.383" fill="#EEEFF6" opacity=".666" rx="20.198" ry="20.212"/>
        </g>
    </g>
</svg>
