<svg width="55" height="55" viewBox="0 0 55 55" fill="none" xmlns="http://www.w3.org/2000/svg">
<path fill-rule="evenodd" clip-rule="evenodd" d="M27.5002 52.8C13.5478 52.8 2.2002 41.4502 2.2002 27.5C2.2002 13.5498 13.5478 2.19998 27.5002 2.19998C41.4526 2.19998 52.8002 13.5498 52.8002 27.5C52.8002 41.4502 41.4526 52.8 27.5002 52.8M27.5 0C12.3134 0 0 12.3134 0 27.5C0 42.6866 12.3134 55 27.5 55C42.6866 55 55 42.6866 55 27.5C55 12.3134 42.6866 0 27.5 0" fill="white"/>
<path fill-rule="evenodd" clip-rule="evenodd" d="M27.5001 53.7308C41.9869 53.7308 53.7308 41.9868 53.7308 27.5C53.7308 13.0131 41.9869 1.26923 27.5001 1.26923C13.0132 1.26923 1.26929 13.0131 1.26929 27.5C1.26929 41.9868 13.0132 53.7308 27.5001 53.7308Z" fill="white"/>
<path fill-rule="evenodd" clip-rule="evenodd" d="M41.2565 17.6816L23.5993 34.8064L17.4107 28.62C16.7661 27.9754 15.7233 27.9754 15.0787 28.62C14.4341 29.2646 14.4341 30.3074 15.0787 30.952L22.4135 38.2868C22.7347 38.6102 23.1571 38.773 23.5795 38.773C23.9931 38.773 24.4067 38.619 24.7279 38.3066L43.5533 20.051C44.2067 19.4152 44.2243 18.3724 43.5907 17.719C42.9527 17.0634 41.9099 17.048 41.2565 17.6816" fill="#36BC99"/>
</svg>
