<svg xmlns="http://www.w3.org/2000/svg" xmlns:xlink="http://www.w3.org/1999/xlink" width="56" height="56" viewBox="0 0 56 56">
    <defs>
        <filter id="a" width="107.5%" height="137.5%" x="-3.8%" y="-18.8%" filterUnits="objectBoundingBox">
            <feOffset dx="2" dy="2" in="SourceAlpha" result="shadowOffsetOuter1"/>
            <feGaussianBlur in="shadowOffsetOuter1" result="shadowBlurOuter1" stdDeviation="1.5"/>
            <feColorMatrix in="shadowBlurOuter1" result="shadowMatrixOuter1" values="0 0 0 0 0 0 0 0 0 0 0 0 0 0 0 0 0 0 0.2 0"/>
            <feMerge>
                <feMergeNode in="shadowMatrixOuter1"/>
                <feMergeNode in="SourceGraphic"/>
            </feMerge>
        </filter>
        <linearGradient id="b" x1="-4.994%" y1=".096%" y2="117.624%">
            <stop offset="0%" stop-color="#FFF"/>
            <stop offset="100%" stop-color="#F0C839"/>
        </linearGradient>
        <path id="c" d="M54.052 37.713h-8.364C42.663 45.12 35.381 50.34 26.878 50.34c-8.44 0-15.677-5.144-18.742-12.466-1.083-3-1.563-4.3-1.563-9.43 0-3.42-2.184-12.902-6.55-28.445h54.029v37.713z"/>
        <path id="e" d="M.254.175H40.52V9.05H.254z"/>
        <path id="g" d="M.554.066h16.68v26.156H.553z"/>
    </defs>
    <g fill="none" fill-rule="evenodd" filter="url(#a)" transform="translate(-224)">
        <path fill="#FFC72D" fill-rule="nonzero" d="M275.586 31.055c0 13.08-10.614 23.684-23.707 23.684s-23.707-10.604-23.707-23.684c0-13.08 10.614-23.685 23.707-23.685s23.707 10.604 23.707 23.685zm-3.401 0c0-11.204-9.092-20.287-20.306-20.287-11.215 0-20.306 9.083-20.306 20.287 0 11.204 9.09 20.286 20.306 20.286 11.214 0 20.306-9.082 20.306-20.286z"/>
        <path fill="url(#b)" fill-rule="nonzero" d="M47.185 30.055c0 11.204-9.092 20.286-20.306 20.286-11.215 0-20.306-9.082-20.306-20.286s9.09-20.287 20.306-20.287c11.214 0 20.306 9.083 20.306 20.287z" transform="translate(225 1)"/>
        <g transform="translate(225 1)">
            <mask id="d" fill="#fff">
                <use xlink:href="#c"/>
            </mask>
            <g mask="url(#d)">
                <path fill="#9E6B29" d="M7.395 27.68c-1.859 4.553-3.053 7.083-1.756 8.449 1.28 1.341 3.094 3.685 5.51 7.357 2.33 3.532 6.624 1.529 13.446 2.785 6.747 1.245 9.716 1.454 13.329-.73 3.7-2.237 5.917-1.925 6.431-2.158.515-.24-.218-2.664.095-5.958.321-3.405.148-10.358.708-16.449-.066.718-1.445.571-2.724.768-3.173.491-17.361 4.892-22.626.836-4.017-3.1-6.873-6.15-7.822-8.673-2.786 4.529-2.652 9.012-4.591 13.772"/>
                <path fill="#87541E" d="M45.539 21.674c-.647.739-1.26 1.256-1.865 1.745-.6.48-.63.435-1.216.826-1.164.779-2.312 1.365-3.446 1.93a28.09 28.09 0 0 1-3.344 1.412l-.825.283c-.12.042-.29.092-.448.137-.162.049-.315.078-.474.115a9.003 9.003 0 0 1-1.775.182c-2.253-.025-4.218-.718-6.111-1.532-3.773-1.688-7.21-4.251-10.544-7.026l-1.249-1.04-.605-.48c-.207-.148-.44-.334-.66-.516-.447-.37-.895-.75-1.37-1.296-.153-.19-.313-.377-.477-.656l.847-1.474c.098.14.212.267.327.376.4.384.845.686 1.29.97.903.528 1.803 1.147 2.678 1.757 3.494 2.44 6.989 4.789 10.67 6.436 1.833.816 3.774 1.225 5.779 1.335a7.541 7.541 0 0 0 1.528-.078c.514-.087 1.05-.26 1.586-.418a38.181 38.181 0 0 0 3.25-1.148c1.1-.447 2.037-.887 3.149-1.501 1.114-.629 1.7-.798 2.748-1.835.059-.06.341-.163.4-.228l.157 1.724z"/>
                <path fill="#BC7930" d="M5.123 35.047c-.049-.972.254-1.81.544-2.64 1.057-3.035 3.244-5.191 4.11-8.086.308-1.025-.546-5.185 2.241-10.37l-.055-.097c-1.061 1.692-2.156 3.156-2.732 5.282-.57 2.09-.27 3.313-.804 5.32-.258.994-1.904 4.122-2.232 5.015-.328.882-.643 1.772-.89 2.703-.122.462-.227.937-.286 1.428-.06.484-.07 1.002.035 1.476l.07-.03zM45.078 21.038c-.192 2.442-.741 4.025-.962 6.113-.201 2.037 1.032 3.287.123 6.115-1.945 6.052-.27 8.655-.136 9.03.066.186.13.372.182.549.03.089.054.177.07.254.006.085.041.105-.003.186l.008.192a.368.368 0 0 0 .162-.166.793.793 0 0 0 .071-.216c.027-.134.033-.254.036-.372.005-.236-.007-.46-.018-.682l-.077-1.335a22.016 22.016 0 0 1-.003-2.761c.058-.954 1.157-4.593 1.32-5.633.316-2.109-.832-3.495-.827-5.616.006-1.077.764-1.664.67-2.71a30.894 30.894 0 0 0-.457-3.078l-.16.13z"/>
                <g transform="rotate(11 -177.429 42.224)">
                    <mask id="f" fill="#fff">
                        <use xlink:href="#e"/>
                    </mask>
                    <path fill="#935D24" d="M40.482.944c-.169.04-.38-.069-.578-.135-.204-.077-.683 0-.9.04-1.83.338-2.748 1.405-3.654 1.886a6.994 6.994 0 0 0-.666.417c-.218.152-.437.326-.62.461-.371.272-.753.52-1.133.73-.763.422-1.53.746-2.325.946-1.586.373-3.246.503-4.933.506l-2.552.035c-.857.009-1.709-.023-2.62.013-1.785.12-3.557.404-5.273.784-1.703.392-3.389.846-4.887.73a3.242 3.242 0 0 1-1.577-.585l-.247-.18-.122-.1-.151-.133c-.84-.738-1.604-2.317-2.512-2.844-.918-.516-1.838-1.478-2.757-1.787-.46-.159-.915-.307-1.36-.49C1.16 1.061.738.884.43.322L.254.175c.13.41.39.842.608 1.046.22.2.445.337.669.474.449.268.9.49 1.345.72.89.45 1.756 1.49 2.598 2.091.839.59 1.522 2.197 2.282 2.965.75.816 1.653 1.306 2.537 1.47.885.173 1.76.115 2.616.011.86-.11 1.71-.272 2.56-.423 1.697-.312 3.399-.569 5.108-.645 1.703-.068 3.418-.056 5.122-.17 1.701-.113 3.412-.281 5.093-.859a10.2 10.2 0 0 0 2.475-1.252c.4-.276.791-.585 1.175-.922.38-.346.776-.634 1.157-.94 2.45-1.959 4.463-2.555 4.572-2.549.108.002.218.024.35-.054l-.039-.194z" mask="url(#f)"/>
                </g>
                <path fill="#905416" d="M30.344 3.537c-.202.168-.41.347-.626.536 3.128.956 9.82 3.012 11.035 3.561 2.338 1.061 5.165 2.625 5.158 4.018-.006 1.212-1.1 2.356-2.586 3.375l-.004-.006c-14.551.094-17.306-6.303-17.306-6.303.373-.646.748-1.38 1.065-2.158a100.04 100.04 0 0 0-1.867 1.912c-2.3-.41-5.204.78-9.303 2.46-1.177-1.176-1.512-2.25-1.564-3.063-.064-1.133 4.59-3.618 7.905-4.806 3.345-1.202 8.093.474 8.093.474z"/>
                <path fill="#D28744" d="M46.893 11.43c.345.766.14 1.507-.581 2.188-1.45 1.368-5.894 3.222-7.783 3.97.041-.016.084-.037.127-.057 1.531-.705 3.275-1.552 4.668-2.504 1.488-1.02 2.58-2.163 2.586-3.376.007-1.392-2.819-2.956-5.157-4.017 3.59 1.231 5.585 2.547 6.14 3.795"/>
                <path fill="#824B16" d="M38.207 6.316l-.017.059.688.273c1.331.536 2.643 1.124 3.912 1.824.632.354 1.254.73 1.84 1.186.293.23.575.479.833.775.242.3.429.674.448 1.218l-.087.027c-.09-.404-.379-.61-.657-.803a5.178 5.178 0 0 0-.902-.494 16.5 16.5 0 0 0-1.947-.726 30.588 30.588 0 0 0-2-.614c-.673-.183-1.336-.4-2.013-.572L37.64 8.3l-.005.018c-.063-.016-.21-.061-.428-.128l.086.024-.19-.054c-2.209-.69-10.21-3.269-10.794-3.38-1.308-.252-2.645-.289-3.852-.065-.681.154-1.38.385-2.077.574-.698.195-1.393.42-2.086.66-.696.214-1.384.477-2.067.749-.34.134-.677.288-1 .463a3.413 3.413 0 0 0-.473.287c-.143.11-.291.248-.322.399l-.168.036c.005-.36.187-.549.32-.726a4.2 4.2 0 0 1 .459-.456c.316-.273.642-.509.974-.733a23.823 23.823 0 0 1 2.03-1.2c1.38-.729 2.786-1.37 4.215-1.898 1.463-.51 2.935-.504 4.37-.367 1.234.142 10.39 3.42 11.575 3.812z"/>
                <path fill="#BC7930" d="M28.894 2.009c.717.166 7.993 2.745 8.702 3.033l-.02.075c.305.093.75.315 1.335.666a29.078 29.078 0 0 1 3.959 2.159 15.86 15.86 0 0 1 1.821 1.438c.287.27.565.561.811.902.227.351.49.918.468 1.47l-.09.029c-.014-.478-.285-.976-.53-1.268a5.689 5.689 0 0 0-.841-.77c-.598-.457-1.235-.836-1.883-1.191-1.3-.7-4.035-1.235-5.402-1.77l-1.161-.446c-1.138-.383-8.334-3.375-9.52-3.525-1.417-.151-2.871-.168-4.297.314a34.245 34.245 0 0 0-4.199 1.843c-.683.359-1.361.738-2.022 1.172-.328.217-.653.447-.963.71a4.258 4.258 0 0 0-.442.434c-.13.155-.277.355-.274.561l-.084.02c-.015-.313.148-.537.272-.727.136-.192.284-.359.435-.518.308-.31.63-.578.954-.835a26.137 26.137 0 0 1 2-1.409c1.375-.84 2.773-1.582 4.226-2.178 1.553-.627 3.077-.627 4.556-.534.741.056 1.468.19 2.189.345z"/>
                <path fill="#D89459" d="M30.947 3.074c-1.547-.508-3.104-.98-4.69-1.334-1.579-.351-3.193-.608-4.822-.407a8.057 8.057 0 0 0-2.411.676c-.79.353-1.557.815-2.32 1.282L14.421 4.67c-.737.48-1.499.996-2.052 1.838l-.062-.074c.223-.516.547-.947.888-1.314.342-.374.701-.708 1.069-1.026a85.34 85.34 0 0 1 2.213-1.672A17.233 17.233 0 0 1 18.843.915 8.467 8.467 0 0 1 21.45.108c1.104-.118 2.207-.032 3.281.197.536.114 1.066.263 1.588.434.377.124.63.37.979.535.96.46 5.338 1.662 6.4 2.03 2.652.914 5.902.789 8.117 2.843.62.576 1.113 1.317 1.761 1.854 1.152.953 2.678 1.296 3.451 2.746.09.167.179.333.24.517.143.428.12.934-.064 1.363-.086-.591-.332-1.165-.616-1.653-.255-.44-.893-.722-1.288-1a51.56 51.56 0 0 0-3.101-2.02c-.521-.314-1.048-.617-1.575-.921-1.53-.884-2.962-1.776-4.63-2.29-1.692-.523-3.363-1.116-5.046-1.669"/>
                <path fill="#87541E" d="M13.04 31.66c1.353.738 3.58.564 4.91 1.354.577.343 1.091.804 1.643 1.197 1.761 1.254 3.566 1.699 6.052 1.492 1.453-.122-2.887-.482-4.113-1.293-1.425-.942-2.232-3.38-3.914-3.393-4.827-.04-5.14-3.27-6.794-4.962-1.363-1.393.865 4.868 2.215 5.605"/>
                <g transform="rotate(11 -76.358 174.875)">
                    <mask id="h" fill="#fff">
                        <use xlink:href="#g"/>
                    </mask>
                    <path fill="#87541E" d="M15.247 8.263c-1.64-3.104-.006-3.157-.664-5.05-.157-.45-.604-2.8-.862-3.072-.508-.53-.372 1.9-.692 2.21-.512.495-1.393.772-1.997 1.105.062.404.489.533.796.735.595.392.837 1.3.682 2.072-.155.771-.638 1.409-1.195 1.868-.313.26-.657.476-.912.809-.204.265-.34.589-.526.871-.584.886-1.967 1.355-2.892 1.661-.985.326-3.572.666-2.563.865 2.367.468 4.926-1.905 7.332-1.155.189.057.386.142.51.317.106.151.146.352.169.544.127.991.027 2.051-.247 3.094-.6 2.26-2.03 4.367-3.725 5.254-1.339.701-2.836.928-4.17 1.643-1.453.78-2.615 2.15-3.526 3.675-1.098 1.844 2.384-1.849 3.772-2.223 1.51-.407 3.085-.347 4.616-.627.92-.168 1.843-.48 2.643-1.045.736-.522 1.334-1.553 2.295-1.502.626.033 1.126.59 1.572 1.1.445.512.937 1.06 1.563 1.026.109-.31-1.049-3.58-1.077-5.809-.013-1.084.288-3.57.266-4.817-.02-1.131-.301-1.907-1.168-3.549" mask="url(#h)"/>
                </g>
                <path fill="#E5A227" d="M28.665 10.571c6.332-4.234 12.489-1.115 14.715 4.474-1.4 1.073-3.175 2.033-4.747 2.838-1.757-2.16-16.3-3.077-9.968-7.312z"/>
                <path fill="#F3B62F" d="M43.486 15.735c-1.83-2.12-3.874-3.871-6.126-4.941-1.114-.567-2.284-.966-3.49-1.131-1.203-.157-2.458-.127-3.677.336l-.026-.209c1.212-1.237 2.612-1.698 3.943-1.816.677-.088 1.329.018 1.984.117.645.135 1.264.384 1.875.645.596.325 1.179.678 1.73 1.106.532.474 1.072.92 1.538 1.522a12.403 12.403 0 0 1 2.346 4.197l-.097.174z"/>
                <path fill="#D28744" d="M12.327 6.495c.414-.701 1.251-1.42 2.542-2.18 4.12-2.425 5.524-4.153 11.86-2.558.51.128 4.536 1.086 5.142 1.309 1.186.432 6.222 2.382 7.324 3.03 1.102.649-5.515-1.2-5.64-1.224-2.064-.38-5.633-1.626-7.728-1.802-5.55-.465-8.902 2.273-10.521 3.558-.31.245-.989.729-.96 1.24.052.814.388 1.888 1.564 3.065.41.416.924.84 1.563 1.278-4.33-2.035-6.292-3.808-5.146-5.716z"/>
                <path fill="#F3B62F" d="M24.626 15.88c-3.793-1.173-6.312-2.41-7.964-3.6-.648-.47-2.467-1.74-2.545-3.795 4.329-1.858 5.095-4.323 11.085-2.904 3.802.901 6.607 7.602 6.606 7.694 0 .091.73.41 1.954.738 1.546.404 3.114 1.71 4.871 3.87a1.247 1.247 0 0 1-.13.065l-.035.013c-3.12 1.55-4.478.803-13.842-2.08z"/>
                <path fill="#FFD134" d="M35.786 15.074c-.824-.598-1.738-1.04-2.703-1.24-.967-.203-1.98-.146-2.972.101l-.095-1.226c1.134-.173 2.294-.124 3.347.214 1.056.334 1.992.922 2.794 1.637 1.607 1.444 2.773 3.294 3.818 5.185-1.204-1.764-2.535-3.466-4.189-4.671z"/>
                <path fill="#FFD134" d="M14.166 8.233c1.902-.799 4.18-2.197 5.486-2.642 1.61-.54 3.872-.826 5.502-.722.81.064 1.602.306 2.311.76.71.45 1.332 1.101 1.861 1.86 1.062 1.518 1.795 3.392 2.423 5.308l-.126.097c-1.093-1.546-2.057-3.127-3.134-4.29-.552-.556-1.088-1.054-1.691-1.332A4.285 4.285 0 0 0 24.9 6.76c-.676-.08-1.41-.01-2.165.1-.76.07-1.539.273-2.337.391-1.089.208-4.142.817-5.962 1.18-.84.17-.72-.01-.27-.199"/>
                <path fill="#BC7930" d="M46.893 11.43c1.416 2.222-1.083 4.543-.437 6.414.167.485-.074 1.06-.641 1.678-1.598 1.74-5.757 3.797-10.619 5.162-6.475 1.814-19.278-5.934-22.287-7.256-1.21-.53-2.017-.966-2.46-1.412-.665-.668-.523-1.37.277-2.46 1.339-1.84-.233-4.9 1.6-7.06-1.145 1.907.817 3.68 5.148 5.715 1.625 1.101 4.072 2.25 7.725 3.35 8.985 2.7 10.283 3.38 13.297 2.037l.033-.01c1.889-.748 6.333-2.602 7.783-3.97.72-.681.926-1.422.581-2.189"/>
                <path fill="#C7803F" d="M12.287 6.65c-.365.6-.444 1.195-.467 1.868-.043.67.041 1.352.114 2.112.068.746.14 1.645-.159 2.687a4.2 4.2 0 0 1-.291.73c-.054.109-.135.24-.177.312-.039.07-.095.16-.12.213-.12.225-.23.512-.207.567.007.032.045-.047.043-.174-.001-.128-.028-.207-.015-.208.024 0 .186.131.368.224.381.198.861.377 1.344.535.246.085.483.147.747.246l.794.306 1.514.625c3.953 1.69 7.814 3.424 11.688 4.713.963.324 1.932.6 2.895.817a16.36 16.36 0 0 0 2.855.421c.467.025.926.018 1.364-.034.108-.017.22-.028.323-.05.107-.02.204-.038.351-.074l.783-.192c1.045-.283 2.096-.562 3.143-.886 1.05-.322 2.094-.73 3.126-1.153 1.02-.423 2.082-.95 2.881-1.59.194-.147.36-.318.427-.387.031-.03.034-.016.04.053.007.029.012.065.025.084a.054.054 0 0 0 .017.017l.004.001c.009.023-.007-.028-.007-.03l-.004-.015-.012-.062c-.135-.547-.104-1.126.004-1.631.105-.503.277-.917.438-1.287.327-.738.647-1.349.806-1.978.18-.621-.073-1.831-.315-2.437l.117-.14c.354.516.815 1.753.7 2.56-.099.797-1.004 3.617-.855 4.248.035.146.112.375.081.598-.02.227-.1.441-.192.626-.19.369-.43.652-.674.906-.992.983-2.074 1.61-3.144 2.202a31.155 31.155 0 0 1-3.224 1.495 41.43 41.43 0 0 1-3.226 1.137c-.535.162-1.07.337-1.621.44a9.548 9.548 0 0 1-1.621.142c-2.14-.005-4.188-.521-6.187-1.152-4-1.328-7.836-3.272-11.664-5.28-.965-.508-1.914-1-2.908-1.436-.49-.237-.983-.484-1.453-.825-.234-.176-.47-.368-.661-.678a1.37 1.37 0 0 1-.193-.58 1.65 1.65 0 0 1 .079-.652c.127-.39.317-.687.51-.973.205-.28.37-.512.484-.833.23-.626.25-1.373.257-2.111.005-.743-.01-1.519.132-2.297.133-.782.696-1.825 1.15-2.33l-.207.59z"/>
                <path fill="#D89459" d="M12.48 6.26c-.212.347-.465 1.032-.416 1.455.046.421.236.777.45 1.071.44.588.99 1.01 1.54 1.393 1.098.787 2.265 1.397 3.435 1.974l-.032.11c-.704.107-1.357.015-1.99-.17-.322-.075-.622-.224-.934-.352-.303-.147-.598-.333-.895-.52a8.193 8.193 0 0 1-.848-.726c-.262-.3-.54-.603-.757-1.036a3.237 3.237 0 0 1-.41-1.622c.032-.682.626-1.504.92-1.862l-.063.286zM46.724 10.853c.17.168.547.973.577 1.359.04.389-.093.846-.27 1.203-.375.705-.854 1.144-1.292 1.518-.438.388-.89.666-1.332.962-.446.27-.893.503-1.34.737-.448.198-.894.403-1.343.571-.45.152-.896.326-1.347.429-.9.24-1.802.4-2.719.353l-.01-.108a68.62 68.62 0 0 0 5.258-2.311c.88-.424 1.764-.867 2.621-1.43.423-.287.86-.6 1.182-1.074.16-.235.275-.52.294-.808.02-.29-.377-1.13-.479-1.37l.2-.03z"/>
                <path fill="#D89459" d="M45.966 11.554c.041.519-.174 1.196-.448 1.656-.277.46-.61.84-.95 1.188-.683.684-1.407 1.232-2.132 1.74a33.56 33.56 0 0 1-3.295 1.918c-.36.185-.738.38-1.128.545-.77.343-1.606.549-2.395.557-.788.02-1.535-.089-2.26-.222-1.444-.297-2.826-.717-4.215-1.114l-4.136-1.309c-1.385-.47-2.774-.961-4.121-1.62-2.223-1.088-4.333-2.418-6.368-3.907-.306-.224-.617-.453-.853-.77a2.193 2.193 0 0 1-.33-1.886c.194-.651.757-1.176 1.349-1.189-.575.012-.251 1.324-.168 1.58.198.609.543 1.133.922 1.603.525.643 1.127 1.154 1.751 1.603 1.25.888 2.59 1.539 3.944 2.108 2.706 1.125 5.523 1.819 8.289 2.686 1.385.418 2.766.85 4.17 1.17.702.156 1.413.28 2.138.285.725.007 1.466-.143 2.197-.425a37.807 37.807 0 0 0 4.387-2.161c.726-.43 1.45-.901 2.127-1.499.338-.302.665-.639.94-1.04.275-.4.485-.896.485-1.394l.1-.103z"/>
                <path fill="#824B16" d="M10.562 41.427a.918.918 0 0 1 .288-.259c.061-.038.085-.055.103-.08.079-.122.158-.242.241-.363.014-1.4.709-2.753 1.794-3.475l.1-.066c.089-.055.199-.125.236-.176.062-.09.075-.357.082-.554a13.1 13.1 0 0 1 1.118-4.77c.085-.192.146-.33.163-.434.029-.17-.033-.4-.098-.645a4.481 4.481 0 0 1-.14-.666c-.124-1.116.455-2.033.968-2.842.386-.613.75-1.189.798-1.777.018-.208-.004-.437-.026-.682l-.02-.217c-.028-.337-.074-.71-.123-1.105-.142-1.15-.15-3.372-.15-3.466l-.003-.51 1.214.627-.01.205c-.002.019-.096 1.899.031 2.921.05.41.099.796.127 1.141l.017.204c.027.28.057.597.029.934-.079.937-.554 1.69-1.017 2.423-.44.699-.82 1.304-.753 1.92.015.14.057.298.103.464.09.34.204.764.125 1.239a2.926 2.926 0 0 1-.251.74 11.758 11.758 0 0 0-1.013 4.259c-.015.41-.036.92-.344 1.348-.175.248-.392.388-.57.502l-.088.057c-.759.504-1.255 1.539-1.206 2.514l.014.25-.142.198c-.124.175-.236.345-.348.516-.05.076-.117.203-.186.332a5.189 5.189 0 0 1-.28.482l-.435.692-.771-1.334.423-.547z"/>
                <path fill="#824B16" d="M14.726 39.806c-.011-.008-1.052-.731-1.633-.844-.693-.153-2.289-1.48-2.39-1.586l.07-.758c.243.254 1.97 1.626 2.448 1.728.679.145 1.76.889 1.804.922l-.3.538z"/>
                <path stroke="#824B16" stroke-width=".558" d="M14.726 39.806c-.011-.008-1.052-.731-1.633-.844-.693-.153-2.289-1.48-2.39-1.586l.07-.758c.243.254 1.97 1.626 2.448 1.728.679.145 1.76.889 1.804.922l-.3.538z"/>
                <path fill="#824B16" d="M16.065 34.13c-.692-.068-3.013-1.01-3.492-1.182l.19-.596c.551.198 3.067 1.172 3.794 1.18l-.037.625a5.82 5.82 0 0 1-.455-.027"/>
                <path stroke="#824B16" stroke-width=".558" d="M16.065 34.13c-.692-.068-3.013-1.01-3.492-1.182l.19-.596c.551.198 3.067 1.172 3.794 1.18l-.037.625a5.82 5.82 0 0 1-.455-.027z"/>
                <path fill="#824B16" d="M14.883 36.273c-.547-.095-2.412-.936-2.904-1.217l.483-.411c.768.439 2.752 1.132 3.628 1.064l.008.623c-.41.032-.816.01-1.215-.06"/>
                <path stroke="#824B16" stroke-width=".558" d="M14.883 36.273c-.547-.095-2.412-.936-2.904-1.217l.483-.411c.768.439 2.752 1.132 3.628 1.064l.008.623c-.41.032-.816.01-1.215-.06z"/>
                <path fill="#824B16" d="M13.039 42.213c-.96-.198-2.424-1.222-3.119-1.977l.385-.464c.616.666 2.486 1.833 3.334 2.007l-.6.434z"/>
                <path stroke="#824B16" stroke-width=".558" d="M13.039 42.213c-.96-.198-2.424-1.222-3.119-1.977l.385-.464c.616.666 2.486 1.833 3.334 2.007l-.6.434z"/>
                <path fill="#87541E" d="M13.013 13.922c.69.587 1.572.968 2.318 1.503.505.363.942.792 1.456 1.145.72.498 1.348.409 2.387 1.146.466.33-1.099-.284-1.646-.441-.632-.183-1.263-.378-1.862-.652-.67-.306-1.287-.704-1.9-1.1l-1.197-.771c-.673-.434-1.6-1.07-1.7-1.745.36-.7.352-2.078.349-3.117.577.785.986 3.345 1.795 4.032"/>
            </g>
        </g>
    </g>
</svg>
