<svg xmlns="http://www.w3.org/2000/svg" xmlns:xlink="http://www.w3.org/1999/xlink" width="327" height="160" viewBox="0 0 327 160">
    <defs>
        <linearGradient id="prefix__a" x1="50%" x2="50%" y1="-43.749%" y2="203.015%">
            <stop offset="0%" stop-color="#CFD1FB"/>
            <stop offset="100%" stop-color="#EFEFFF"/>
        </linearGradient>
        <linearGradient id="prefix__b" x1="49.998%" x2="49.998%" y1="-160.839%" y2="253.41%">
            <stop offset="0%" stop-color="#CFD1FB"/>
            <stop offset="100%" stop-color="#EFEFFF"/>
        </linearGradient>
        <linearGradient id="prefix__c" x1="50.001%" x2="50.001%" y1="-146.263%" y2="165.188%">
            <stop offset="0%" stop-color="#CFD1FB"/>
            <stop offset="100%" stop-color="#EFEFFF"/>
        </linearGradient>
        <linearGradient id="prefix__d" x1="19.727%" x2="196.088%" y1="67.482%" y2="-6.969%">
            <stop offset="0%" stop-color="#FFA3B1"/>
            <stop offset="100%" stop-color="#FFF"/>
        </linearGradient>
        <linearGradient id="prefix__e" x1="53.738%" x2="13.175%" y1="51.181%" y2="-48.036%">
            <stop offset="0%" stop-color="#FFA3B1"/>
            <stop offset="100%" stop-color="#FFF"/>
        </linearGradient>
        <linearGradient id="prefix__f" x1="50%" x2="50%" y1="11.358%" y2="100%">
            <stop offset="0%" stop-color="#A48EF2"/>
            <stop offset="100%" stop-color="#715EDE"/>
        </linearGradient>
        <linearGradient id="prefix__g" x1="50%" x2="50%" y1="11.358%" y2="100%">
            <stop offset="0%" stop-color="#A48EF2"/>
            <stop offset="100%" stop-color="#715EDE"/>
        </linearGradient>
        <linearGradient id="prefix__h" x1="50%" x2="50%" y1="11.358%" y2="100%">
            <stop offset="0%" stop-color="#A48EF2"/>
            <stop offset="100%" stop-color="#715EDE"/>
        </linearGradient>
        <linearGradient id="prefix__i" x1="50%" x2="50%" y1="11.358%" y2="100%">
            <stop offset="0%" stop-color="#A48EF2"/>
            <stop offset="100%" stop-color="#715EDE"/>
        </linearGradient>
        <linearGradient id="prefix__j" x1="50%" x2="50%" y1="11.358%" y2="100%">
            <stop offset="0%" stop-color="#A48EF2"/>
            <stop offset="100%" stop-color="#715EDE"/>
        </linearGradient>
        <linearGradient id="prefix__k" x1="50%" x2="50%" y1="0%" y2="100%">
            <stop offset="0%" stop-color="#494E7F"/>
            <stop offset="100%" stop-color="#3A3B6D"/>
        </linearGradient>
        <linearGradient id="prefix__l" x1="19.727%" x2="196.088%" y1="69.173%" y2="-12.48%">
            <stop offset="0%" stop-color="#FFA3B1"/>
            <stop offset="100%" stop-color="#FFF"/>
        </linearGradient>
        <linearGradient id="prefix__m" x1="19.727%" x2="196.088%" y1="56.825%" y2="27.759%">
            <stop offset="0%" stop-color="#FFA3B1"/>
            <stop offset="100%" stop-color="#FFF"/>
        </linearGradient>
        <linearGradient id="prefix__n" x1="42.673%" x2="85.359%" y1="80.315%" y2="-48.789%">
            <stop offset="0%" stop-color="#FFA3B1"/>
            <stop offset="100%" stop-color="#FFF"/>
        </linearGradient>
        <linearGradient id="prefix__o" x1="50%" x2="50%" y1="0%" y2="100%">
            <stop offset="0%" stop-color="#494E7F"/>
            <stop offset="100%" stop-color="#3A3B6D"/>
        </linearGradient>
        <linearGradient id="prefix__p" x1="53.255%" x2="17.93%" y1="51.181%" y2="-48.036%">
            <stop offset="0%" stop-color="#FFA3B1"/>
            <stop offset="100%" stop-color="#FFF"/>
        </linearGradient>
        <linearGradient id="prefix__q" x1="55.878%" x2="-7.903%" y1="50.407%" y2="16.226%">
            <stop offset="0%" stop-color="#FFA3B1"/>
            <stop offset="100%" stop-color="#FFF"/>
        </linearGradient>
        <linearGradient id="prefix__r" x1="50%" x2="50%" y1="0%" y2="100%">
            <stop offset="0%" stop-color="#FFF"/>
            <stop offset="100%" stop-color="#3A3B6D"/>
        </linearGradient>
        <linearGradient id="prefix__s" x1="31.257%" x2="140.447%" y1="80.315%" y2="-48.789%">
            <stop offset="0%" stop-color="#FFA3B1"/>
            <stop offset="100%" stop-color="#FFF"/>
        </linearGradient>
        <linearGradient id="prefix__t" x1="19.727%" x2="196.088%" y1="57.233%" y2="26.429%">
            <stop offset="0%" stop-color="#FFA3B1"/>
            <stop offset="100%" stop-color="#FFF"/>
        </linearGradient>
        <linearGradient id="prefix__u" x1="38.608%" x2="104.975%" y1="80.315%" y2="-48.789%">
            <stop offset="0%" stop-color="#FFA3B1"/>
            <stop offset="100%" stop-color="#FFF"/>
        </linearGradient>
        <linearGradient id="prefix__v" x1="19.727%" x2="196.088%" y1="57.078%" y2="26.936%">
            <stop offset="0%" stop-color="#FFA3B1"/>
            <stop offset="100%" stop-color="#FFF"/>
        </linearGradient>
        <linearGradient id="prefix__w" x1="50%" x2="50%" y1="0%" y2="100%">
            <stop offset="0%" stop-color="#494E7F"/>
            <stop offset="100%" stop-color="#3A3B6D"/>
        </linearGradient>
        <linearGradient id="prefix__x" x1="50%" x2="50%" y1="11.358%" y2="100%">
            <stop offset="0%" stop-color="#A48EF2"/>
            <stop offset="100%" stop-color="#715EDE"/>
        </linearGradient>
        <linearGradient id="prefix__y" x1="50%" x2="50%" y1="0%" y2="114.557%">
            <stop offset="0%" stop-color="#AB386D"/>
            <stop offset="100%" stop-color="#873352"/>
        </linearGradient>
        <linearGradient id="prefix__z" x1="26.032%" x2="67.427%" y1=".01%" y2="288.422%">
            <stop offset="0%" stop-color="#EDEAF2"/>
            <stop offset="100%" stop-color="#E5D9F7"/>
        </linearGradient>
        <linearGradient id="prefix__A" x1="58.278%" x2="30.177%" y1="16.92%" y2="100%">
            <stop offset="0%" stop-color="#FFD054"/>
            <stop offset="100%" stop-color="#FFA34C"/>
        </linearGradient>
        <linearGradient id="prefix__B" x1="0%" x2="100%" y1="203.491%" y2="203.491%">
            <stop offset="0%" stop-color="#F9F6FF"/>
            <stop offset="51.288%" stop-color="#FFF7F7"/>
            <stop offset="100%" stop-color="#EFE4FF"/>
        </linearGradient>
        <linearGradient id="prefix__C" x1="50%" x2="50%" y1="1.842%" y2="100%">
            <stop offset="0%" stop-color="#FF7D9A"/>
            <stop offset="100%" stop-color="#FF91A8"/>
        </linearGradient>
        <linearGradient id="prefix__D" x1="50%" x2="50%" y1="0%" y2="100%">
            <stop offset="0%" stop-color="#FFEFFA"/>
            <stop offset="100%" stop-color="#FFF0FA"/>
        </linearGradient>
        <linearGradient id="prefix__E" x1="50%" x2="50%" y1="11.358%" y2="100%">
            <stop offset="0%" stop-color="#A48EF2"/>
            <stop offset="100%" stop-color="#715EDE"/>
        </linearGradient>
        <linearGradient id="prefix__F" x1="50%" x2="50%" y1="11.358%" y2="100%">
            <stop offset="0%" stop-color="#A48EF2"/>
            <stop offset="100%" stop-color="#715EDE"/>
        </linearGradient>
        <linearGradient id="prefix__G" x1="50%" x2="50%" y1="11.358%" y2="100%">
            <stop offset="0%" stop-color="#A48EF2"/>
            <stop offset="100%" stop-color="#715EDE"/>
        </linearGradient>
        <linearGradient id="prefix__H" x1="34.103%" x2="34.103%" y1="0%" y2="80.987%">
            <stop offset="0%" stop-color="#FFD054"/>
            <stop offset="100%" stop-color="#FFA34C"/>
        </linearGradient>
        <linearGradient id="prefix__I" x1="34.103%" x2="34.103%" y1="0%" y2="80.987%">
            <stop offset="0%" stop-color="#FFD054"/>
            <stop offset="100%" stop-color="#FFA34C"/>
        </linearGradient>
        <linearGradient id="prefix__J" x1="34.103%" x2="34.103%" y1="0%" y2="80.987%">
            <stop offset="0%" stop-color="#FFD054"/>
            <stop offset="100%" stop-color="#FFA34C"/>
        </linearGradient>
        <linearGradient id="prefix__K" x1="63.963%" x2="50%" y1="52.806%" y2="85.602%">
            <stop offset="0%" stop-color="#494E7F"/>
            <stop offset="100%" stop-color="#3A3B6D"/>
        </linearGradient>
        <linearGradient id="prefix__L" x1="50%" x2="50%" y1="0%" y2="100%">
            <stop offset="0%" stop-color="#494E7F"/>
            <stop offset="100%" stop-color="#3A3B6D"/>
        </linearGradient>
        <linearGradient id="prefix__M" x1="50%" x2="50%" y1="0%" y2="100%">
            <stop offset="0%" stop-color="#FFECB9"/>
            <stop offset="100%" stop-color="#EEAC6E"/>
        </linearGradient>
        <linearGradient id="prefix__N" x1="50%" x2="50%" y1="0%" y2="100%">
            <stop offset="0%" stop-color="#494E7F"/>
            <stop offset="100%" stop-color="#3A3B6D"/>
        </linearGradient>
        <linearGradient id="prefix__O" x1="50%" x2="50%" y1="0%" y2="100%">
            <stop offset="0%" stop-color="#FFECB9"/>
            <stop offset="100%" stop-color="#EEAC6E"/>
        </linearGradient>
        <linearGradient id="prefix__P" x1="50%" x2="50%" y1="0%" y2="100%">
            <stop offset="0%" stop-color="#494E7F"/>
            <stop offset="100%" stop-color="#3A3B6D"/>
        </linearGradient>
        <linearGradient id="prefix__R" x1="-7.519%" x2="102.137%" y1="50.948%" y2="48.541%">
            <stop offset="0%" stop-color="#111728"/>
            <stop offset="100%" stop-color="#5E6289"/>
        </linearGradient>
        <linearGradient id="prefix__T" x1="50%" x2="50%" y1="0%" y2="100%">
            <stop offset="0%" stop-color="#494E7F"/>
            <stop offset="100%" stop-color="#3A3B6D"/>
        </linearGradient>
        <linearGradient id="prefix__U" x1="50%" x2="50%" y1="11.358%" y2="100%">
            <stop offset="0%" stop-color="#A48EF2"/>
            <stop offset="100%" stop-color="#715EDE"/>
        </linearGradient>
        <linearGradient id="prefix__V" x1="50%" x2="50%" y1="0%" y2="100%">
            <stop offset="0%" stop-color="#494E7F"/>
            <stop offset="100%" stop-color="#3A3B6D"/>
        </linearGradient>
        <linearGradient id="prefix__W" x1="52.42%" x2="50%" y1="53.941%" y2="100%">
            <stop offset="0%" stop-color="#494E7F"/>
            <stop offset="100%" stop-color="#3A3B6D"/>
        </linearGradient>
        <linearGradient id="prefix__X" x1="50%" x2="50%" y1="0%" y2="100%">
            <stop offset="0%" stop-color="#494E7F"/>
            <stop offset="100%" stop-color="#3A3B6D"/>
        </linearGradient>
        <linearGradient id="prefix__Y" x1="50%" x2="50%" y1="0%" y2="100%">
            <stop offset="0%" stop-color="#FFECB9"/>
            <stop offset="100%" stop-color="#EEAC6E"/>
        </linearGradient>
        <linearGradient id="prefix__aa" x1="142.237%" x2="10.268%" y1="50%" y2="84.203%">
            <stop offset="0%" stop-color="#A48EF2"/>
            <stop offset="100%" stop-color="#715EDE"/>
        </linearGradient>
        <path id="prefix__Q" d="M.346 1.302c0 2.23 1.913 4.143 5.418 5.1 3.506.955 9.243.636 11.792.318 2.55-.319 3.825-.957 3.825-3.187 0-2.231-3.187-2.55-7.012-2.869-3.824-.318-5.418 0-7.33 0-1.125 0-3.242-.551-4.795-.551C1.157.113.346.383.346 1.302"/>
        <path id="prefix__Z" d="M165.335 110.37c-1.931.552.662 9.495 2.181 10.952 1.518 1.456 10.787-3.57 10.787-3.57l-1.017-1.94-7.538 2.12s-.783-3.683-1.651-5.277c-.749-1.375-1.27-2.363-2.254-2.363-.157 0-.325.025-.508.077"/>
    </defs>
    <g fill="none" fill-rule="evenodd">
        <path fill="#FFF" d="M12 0h303c6.627 0 12 5.373 12 12v148H0V12C0 5.373 5.373 0 12 0z"/>
        <g transform="translate(26 13)">
            <path d="M0 0H274.68V134.4H0z"/>
            <path fill="url(#prefix__a)" d="M6.597 2.201c-.622-.322-1.328-.506-2.077-.506C2.024 1.695 0 3.578 0 6.215c0 2.637 1.58 4.25 3.202 4.324.417.127 14.167 0 14.167 0 1.737 0 3.158-.934 3.158-3.57 0-2.637-1.644-3.955-3.672-3.955-.78 0-1.503.245-2.098.66-.468-1.997-2.26-3.485-4.4-3.485-1.568 0-2.95.799-3.76 2.012" transform="translate(66.36 18.949)"/>
            <path fill="url(#prefix__b)" d="M7.677.364c-2.64 0-4.063 1.273-4.322 2.376-.329-.23-.727-.365-1.159-.365-1.12 0-2.028.728-2.028 2.185 0 1.456.785 1.972 1.745 1.972 0 0 7.594.07 7.825 0 .896-.04 1.769-.932 1.769-2.389 0-1.456-1.191-3.779-3.83-3.779z" transform="translate(98.28 8.869)"/>
            <path fill="url(#prefix__c)" d="M4.816 2.959c-.471-.329-1.044-.523-1.662-.523-1.607 0-2.91 1.044-2.91 3.133S1.37 8.4 2.746 8.4c0 0 10.895.1 11.225 0 1.286-.06 2.537-1.338 2.537-3.427s-1.603-3.581-3.58-3.581c-.594 0-1.154.145-1.646.401C10.639.831 9.544.197 8.302.197c-1.696 0-3.115 1.18-3.486 2.762" transform="translate(170.52 16.429)"/>
            <g>
                <path fill="url(#prefix__d)" d="M23.49 5.602c-2.022 2.012-4.303 4.302-6.894 5.494-2.678 1.233-5.172.992-7.947 1.986-3.638 1.302-6.783 4.164-5.172 9.274 1.612 5.11 6.8 5.573 8.21 5.641 2.027.097 5.526-.273 8.644-2.349 3.12-2.075 4.657-5.262 9.36-9.062 4.704-3.799 12.216-8.257 9.757-14.175C38.722.664 37.26 0 35.494 0c-4.216 0-10.17 3.777-12.004 5.602" transform="translate(149.44 64.417)"/>
                <path fill="#FFF" d="M37.852 3.114c.12.139.103.347-.036.465-.087.075-5.232 4.464-10.948 8.892l5.919.816c.18.024.307.191.282.372-.015.108-.08.196-.17.245-.04.021-.084.035-.13.039l-.072-.002-6.456-.89c-.032-.004-.063-.013-.09-.026-1.396 1.073-2.816 2.138-4.194 3.135-.03.067-.081.121-.144.155-.037.02-.078.033-.12.038-2.253 1.618-4.38 3.04-6.103 3.995-.307.17-.613.338-.921.506-.8.433-1.6.855-2.39 1.263l7.39 1.846c.176.044.284.224.24.4-.024.094-.085.168-.163.21-.07.039-.154.052-.238.03l-8.124-2.03C5.575 25.518.517 27.592.454 27.617c-.168.069-.36-.012-.43-.18-.068-.17.015-.362.181-.43.061-.026 4.928-2.02 10.59-4.874l.007-.045c.044-.176.223-.284.4-.24l.104.026c1.302-.662 2.64-1.367 3.964-2.102 1.718-.954 3.848-2.379 6.101-4.001l1.282-6.176c.037-.179.211-.294.39-.256.157.032.264.17.263.324l-.006.066-1.134 5.465c1.92-1.404 3.904-2.925 5.78-4.4l1.059-7.025c.027-.18.195-.305.375-.277.158.024.273.155.28.309l-.003.066-.953 6.329c4.738-3.753 8.608-7.053 8.683-7.118.139-.12.347-.102.465.037z" transform="translate(149.44 64.417)"/>
            </g>
            <path fill="#FFA3B1" d="M160.674 86.905c.092-.05.159-.142.171-.254l1.009-9.11c.02-.18-.111-.343-.292-.364-.182-.02-.345.11-.365.293l-1.008 9.109c-.02.181.11.344.292.364.07.008.136-.007.193-.038"/>
            <path fill="url(#prefix__e)" d="M96.071 42.706c-6.158 2.85 1.199 14.105 4.048 16.75 2.214 2.055 4.732 4.372 6.103 7.063 1.416 2.782 1.267 5.43 2.435 8.325 1.53 3.794 4.69 7.002 10.029 5.082 5.34-1.92 5.61-7.429 5.623-8.923.018-2.15-.521-5.836-2.848-9.048-2.327-3.212-5.764-4.705-9.98-9.523-3.593-4.102-7.776-10.338-12.742-10.338-.865 0-1.754.189-2.668.612"/>
            <path fill="#FFF" d="M96.883 44.365c.141-.132.363-.123.494.018.082.09 4.942 5.349 9.867 11.21l.615-6.297c.018-.192.19-.332.381-.313.116.01.212.076.267.169.037.062.055.135.047.212l-.67 6.868c-.003.034-.01.066-.023.097 1.193 1.432 2.38 2.889 3.492 4.305.073.028.132.08.17.145.024.039.04.081.046.126 1.805 2.315 3.4 4.507 4.483 6.29.194.317.384.634.574.953 4.34 7.293 7.717 14.678 7.752 14.754.08.176.003.383-.173.464-.175.08-.383 0-.463-.174-.036-.08-3.69-8.076-8.287-15.635-1.081-1.778-2.678-3.971-4.49-6.287l-6.587-1.096c-.19-.032-.32-.212-.288-.403.032-.19.212-.319.402-.287l5.83.97c-1.566-1.973-3.259-4.008-4.898-5.93l-7.477-.826c-.192-.02-.331-.193-.31-.386.022-.192.194-.33.386-.309l6.736.743c-4.17-4.856-7.824-8.81-7.895-8.888-.133-.142-.123-.362.019-.493z"/>
            <path fill="#FFA3B1" d="M120.349 62.62c-.049-.081-.13-.143-.23-.163-.189-.04-.374.082-.413.27l-1.883 9.047c-.04.189.082.374.271.414.19.039.374-.083.413-.272l1.883-9.046c.019-.089.002-.178-.041-.25"/>
            <path fill="#FFA3B1" d="M118.5 71.714c-.057-.095-.157-.163-.276-.17l-9.68-.685c-.193-.013-.36.132-.373.324-.014.193.13.36.323.374l9.681.684c.192.013.36-.132.373-.324.006-.074-.013-.144-.048-.203"/>
            <path fill="url(#prefix__f)" d="M178.015 37.63c-2.194.14-3.822 2.043-5.025 3.883-2.093 3.2-3.908 6.858-7.237 8.74-3.286 1.857-4.579 2.417-7.535 4.763-2.258 1.792-3.29 4.786-3.362 7.668-.06 2.36-1.6 6.1-1.42 8.397.127 1.598.834 7.468 6.688 9.117 5.854 1.65 8.992-2.02 10.342-6.192 1.03-3.184.28-6.79 1.585-9.87 1.263-2.982 4.17-4.866 6.382-7.231 2.846-3.043 4.612-7.078 4.916-11.234.134-1.822-.024-3.728-.904-5.33-.842-1.53-2.455-2.72-4.188-2.72-.08 0-.161.003-.242.008"/>
            <path fill="#FFF" d="M180.26 40.608c.115-.143.323-.165.465-.051.142.114.165.322.05.464-.07.089-3.75 4.682-7.892 10.265l8.401-.73c.181-.015.341.119.357.3.014.153-.08.29-.218.34-.026.01-.053.015-.082.018l-8.981.779c-2.762 3.744-5.668 7.856-7.807 11.318l7.763-1.862c.178-.042.356.067.398.244.04.166-.053.332-.21.388-.01.004-.022.007-.034.01l-8.403 2.016c-.558.93-1.052 1.804-1.462 2.6-.955 1.855-1.86 3.729-2.692 5.525l9.7-1.378c.18-.026.347.1.373.28.022.158-.07.306-.216.357-.02.008-.042.013-.065.016l-10.12 1.437c-2.767 6.051-4.637 11.048-4.662 11.114-.036.095-.11.164-.2.195-.07.025-.15.027-.225-.001-.17-.064-.258-.254-.194-.425.025-.067 1.934-5.164 4.75-11.306.003-.012.009-.024.015-.035.901-1.964 1.895-4.035 2.95-6.081.423-.822.935-1.726 1.514-2.689.015-.047.04-.09.074-.125 1.29-2.131 2.902-4.541 4.61-6.978l-1.046-6.18c-.03-.18.09-.349.27-.38.18-.03.35.09.381.27l.935 5.524c5.35-7.558 11.412-15.125 11.504-15.239z"/>
            <path fill="#FFA3B1" d="M160.57 72.955c.153-.055.246-.214.212-.378L158.1 59.544c-.036-.179-.21-.294-.39-.257-.177.034-.293.211-.256.39l2.683 13.034c.037.178.211.293.39.256.015-.003.03-.007.044-.012"/>
            <path fill="url(#prefix__g)" d="M102.546 68.419s-3.27-5.129-5.182-5.983c-1.914-.855-4.605-1.446-5.743 1.101-1.139 2.548 1.32 4.055 3.087 4.843 1.766.79 7.838.039 7.838.039"/>
            <path fill="url(#prefix__h)" d="M105.571 71.123s-5.31-1.395-7.209-.885c-1.9.51-4.229 1.605-3.64 3.798.588 2.191 3.26 1.787 5.013 1.317 1.754-.471 5.836-4.23 5.836-4.23"/>
            <path fill="url(#prefix__i)" d="M106.455 71.766s2.6-4.55 2.6-6.427c0-1.877-.434-4.295-2.6-4.295S104 63.607 104 65.34c0 1.732 2.455 6.426 2.455 6.426"/>
            <path fill="url(#prefix__j)" d="M110.213 75.866s-5.019-1.503-6.847-1.078c-1.83.425-4.086 1.394-3.596 3.504.49 2.11 3.052 1.811 4.74 1.42 1.687-.393 5.703-3.846 5.703-3.846"/>
            <path fill="url(#prefix__k)" d="M106.483 63.992c.2.028.339.213.31.413-.005.03-.421 3.018.008 7.163 1.49 1.42 3.06 3.12 4.716 5.174.126.157.102.387-.055.513-.036.03-.077.051-.119.064-.139.045-.297.002-.394-.119-1.638-2.03-3.188-3.71-4.66-5.11-.062-.031-.115-.08-.15-.143-.126-.119-.251-.235-.375-.35-.06.051-.136.081-.22.083h-.027c-.316.011-3.301.138-7.192 1.224-.17.047-.346-.034-.423-.186-.01-.021-.02-.044-.026-.068-.055-.194.059-.395.253-.45 3.302-.92 5.915-1.165 6.937-1.228-4.154-3.636-7.659-5.084-10.743-6.14-.191-.065-.293-.273-.228-.463.066-.19.273-.292.464-.227 3.27 1.119 7 2.667 11.44 6.682-.31-3.799.055-6.406.071-6.524.029-.199.214-.338.413-.308z"/>
            <path fill="url(#prefix__l)" d="M84.637 106.797s-1.829-4.677-3.241-5.675c-1.413-.998-3.499-1.907-4.828-.026-1.33 1.882.422 3.495 1.726 4.416 1.304.922 6.343 1.285 6.343 1.285"/>
            <path fill="url(#prefix__m)" d="M86.617 109.653s-3.892-1.888-5.439-1.784c-1.546.105-3.514.596-3.393 2.38.12 1.785 2.247 1.88 3.675 1.784 1.427-.097 5.157-2.38 5.157-2.38"/>
            <path fill="url(#prefix__n)" d="M87.268 110.132s2.833-3.27 3.133-4.79c.3-1.52.335-3.548-1.42-3.894-1.753-.347-2.397 1.683-2.674 3.087-.277 1.403.961 5.597.961 5.597"/>
            <path fill="url(#prefix__o)" d="M78.851 102.056c2.47 1.428 5.243 3.279 8.199 7.24.355-3.127 1.067-5.18 1.1-5.272.055-.157.227-.24.384-.184.157.055.24.227.184.384-.008.023-.823 2.377-1.138 5.802.98 1.39 1.979 3.018 2.992 4.946.078.147.022.33-.126.407-.034.018-.07.029-.106.033-.12.013-.241-.047-.3-.16-1.004-1.908-1.992-3.517-2.96-4.887-.044-.033-.077-.08-.096-.132-3.05-4.276-5.906-6.193-8.435-7.656-.144-.084-.193-.268-.11-.412.084-.144.268-.193.412-.11z"/>
            <path fill="url(#prefix__p)" d="M112.93 32.104s.023-5.022-.922-6.47c-.945-1.45-2.549-3.063-4.479-1.804-1.929 1.26-.895 3.404-.023 4.742.873 1.337 5.424 3.532 5.424 3.532"/>
            <path fill="url(#prefix__q)" d="M113.933 35.999s-3.008-4.204-4.691-4.977c-1.683-.773-4.03-1.38-4.921.562-.892 1.942 1.286 3.256 2.84 3.97 1.553.713 6.772.445 6.772.445"/>
            <path fill="url(#prefix__r)" d="M115.054 42.214c-.116-.031-.206-.132-.22-.259-.959-8.978-3.604-12.975-6.008-16.018-.103-.13-.081-.32.05-.423.13-.103.319-.081.423.05 2.456 3.108 5.158 7.19 6.134 16.327.018.166-.102.314-.267.332-.039.004-.076 0-.112-.009"/>
            <path fill="url(#prefix__s)" d="M198.889 110.946s.2-5.82 1.36-7.456c1.162-1.636 3.093-3.433 5.272-1.887 2.179 1.546.884 3.985-.188 5.495-1.071 1.51-6.444 3.848-6.444 3.848"/>
            <path fill="url(#prefix__t)" d="M196.46 116.061s4.195-3.505 6.123-3.85c1.929-.346 4.492-.346 4.89 1.88.398 2.224-2.18 2.992-3.96 3.31-1.78.32-7.053-1.34-7.053-1.34"/>
            <path fill="url(#prefix__u)" d="M196.331 115.81s-4.282-2.864-5.105-4.517c-.823-1.652-1.502-3.97.405-4.92 1.907-.95 3.284 1.18 4.044 2.705.76 1.525.656 6.732.656 6.732"/>
            <path fill="url(#prefix__v)" d="M193.54 122.375s4.416-3.466 6.407-3.76c1.99-.293 4.62-.211 4.959 2.085.338 2.296-2.333 3.002-4.17 3.273-1.836.27-7.195-1.598-7.195-1.598"/>
            <path fill="url(#prefix__w)" d="M204.002 102.935c.115-.104.294-.095.398.02.104.116.095.293-.02.398-1.298 1.175-2.466 3.023-4.3 6.24-.277.486-.583.994-.907 1.53-.737 1.222-1.584 2.624-2.488 4.427 2.854-1.688 8.075-1.543 8.314-1.535.156.005.278.135.273.29-.004.123-.087.226-.199.26-.029.009-.06.014-.092.012-.06-.002-6.149-.172-8.594 1.866-.05.04-.108.061-.167.064-.704 1.483-1.437 3.224-2.175 5.318 2.342-1.135 7.262-1.287 7.493-1.294.155-.004.285.119.29.274.003.13-.08.24-.2.277-.023.008-.048.011-.074.012h-.014c-.326.011-6.125.22-7.81 1.58l.03-.022c-.45 1.33-.9 2.794-1.347 4.416-.026.097-.1.168-.189.195-.05.015-.104.017-.157.002-.15-.041-.238-.196-.197-.346 1.28-4.653 2.595-8.023 3.823-10.62-.866-4.028-3.185-7.111-3.208-7.142-.094-.124-.07-.3.053-.395.124-.094.3-.07.395.054.093.123 2.166 2.876 3.15 6.681.948-1.915 1.837-3.387 2.608-4.664.322-.534.627-1.039.9-1.518 1.863-3.27 3.057-5.153 4.411-6.38z"/>
            <path fill="url(#prefix__x)" d="M123.747 5.88c-1.77 0-3.217 1.448-3.217 3.218V41.11c0 1.77 1.448 3.217 3.217 3.217h24.13c1.77 0 3.217-1.448 3.217-3.217V9.098c0-1.77-1.448-3.218-3.218-3.218h-24.129z"/>
            <g>
                <path fill="url(#prefix__y)" d="M23.975 5.875c-1.066 0-1.93-.864-1.93-1.93 0-1.066.864-1.93 1.93-1.93 1.066 0 1.93.864 1.93 1.93 0 1.066-.864 1.93-1.93 1.93z" transform="translate(123.024 8.048)"/>
                <path fill="url(#prefix__z)" d="M25.905 6.518c0 1.066-.864 1.93-1.93 1.93-1.066 0-1.93-.864-1.93-1.93 0-1.066.864-1.93 1.93-1.93 1.066 0 1.93.864 1.93 1.93" transform="translate(123.024 8.048)"/>
                <path fill="url(#prefix__A)" d="M2.365 8.931c-1.12 0-2.038-.917-2.038-2.037V2.282c0-1.12.917-2.037 2.038-2.037H3.76c1.12 0 2.037.917 2.037 2.037v4.612c0 1.12-.917 2.037-2.037 2.037H2.365z" transform="translate(123.024 8.048)"/>
            </g>
            <path fill="url(#prefix__B)" d="M138.473 16.98L142.012 16.98 142.012 8.293 138.473 8.293zM138.473 27.597L142.012 27.597 142.012 18.911 138.473 18.911zM138.473 38.214L142.012 38.214 142.012 29.527 138.473 29.527z"/>
            <path fill="#5E4CAD" d="M120.456 34.031L151.02 34.031 151.02 30.492 120.456 30.492z"/>
            <path fill="url(#prefix__C)" d="M113.13 31.619c-2.123 0-3.86 1.737-3.86 3.86v87.189c0 2.123 1.737 3.86 3.86 3.86h45.364c2.124 0 3.86-1.737 3.86-3.86V35.479c0-2.123-1.736-3.86-3.86-3.86H113.13z"/>
            <path fill="url(#prefix__D)" d="M112.56 116.574L158.567 116.574 158.567 37.429 112.56 37.429z"/>
            <g>
                <path fill="url(#prefix__E)" d="M37.01 30.206c5.68-9.425 2.64-21.668-6.789-27.346-9.43-5.677-21.68-2.64-27.36 6.786-5.68 9.425-2.64 21.668 6.79 27.346 9.43 5.677 21.679 2.64 27.359-6.786z" opacity=".1" transform="translate(115.92 52.08)"/>
                <path fill="url(#prefix__F)" d="M34.32 28.628c4.752-7.884 2.21-18.126-5.679-22.875-7.888-4.75-18.135-2.208-22.887 5.676-4.752 7.885-2.21 18.126 5.679 22.876 7.888 4.75 18.135 2.208 22.887-5.677z" opacity=".5" transform="translate(115.92 52.08)"/>
                <path fill="url(#prefix__G)" d="M32.26 27.41c4.05-6.718 1.883-15.444-4.839-19.491C20.7 3.872 11.97 6.037 7.92 12.755 3.87 19.474 6.037 28.2 12.759 32.247c6.721 4.047 15.453 1.882 19.501-4.836z" transform="translate(115.92 52.08)"/>
                <path fill="#FFF" fill-rule="nonzero" d="M25.488 13.53l-7.404 7.514c-.118.119-.33.119-.47 0l-4.138-4.199c-.117-.12-.329-.12-.47 0l-1.998 2.028c-.117.12-.117.334 0 .477l6.606 6.703c.117.12.329.12.47 0l9.896-10.019c.118-.12.118-.334 0-.477l-1.998-2.028c-.165-.119-.353-.119-.494 0z" transform="translate(115.92 52.08)"/>
            </g>
            <path fill="#FFF" d="M140.155 123.311h-8.686c-1.062 0-1.93-.869-1.93-1.93 0-1.062.868-1.93 1.93-1.93h8.686c1.062 0 1.93.868 1.93 1.93 0 1.061-.868 1.93-1.93 1.93"/>
            <path fill="#F7F7EF" d="M140.685 35.48h-9.746c-.354 0-.643-.29-.643-.644 0-.354.29-.644.643-.644h9.746c.354 0 .643.29.643.644 0 .354-.29.643-.643.643"/>
            <path fill="#F9BC38" d="M92.636 127.338h23.347c.834 0 1.517-.683 1.517-1.518v-2.167c0-.835-.683-1.517-1.517-1.517H92.636c-.835 0-1.517.682-1.517 1.517v2.167c0 .835.682 1.518 1.517 1.518"/>
            <path fill="#FFCE45" d="M102.08 127.338L113.97 127.338 113.97 122.136 102.08 122.136z"/>
            <path fill="#FDD25A" d="M92.636 122.136h.898v5.202h-.898c-.835 0-1.517-.683-1.517-1.517v-2.168c0-.835.682-1.517 1.517-1.517"/>
            <path fill="#FFAC4D" d="M117.38 126.409c-.23.544-.77.929-1.397.929H92.636c-.626 0-1.167-.385-1.398-.93h26.143z"/>
            <path fill="#F9BC38" d="M91.992 122.19h23.348c.834 0 1.517-.683 1.517-1.517v-2.168c0-.835-.683-1.517-1.517-1.517H91.992c-.835 0-1.517.682-1.517 1.517v2.168c0 .834.682 1.517 1.517 1.517"/>
            <path fill="#FFCE45" d="M101.436 122.19L113.327 122.19 113.327 116.988 101.436 116.988z"/>
            <path fill="#FDD25A" d="M91.992 116.988h.898v5.202h-.898c-.834 0-1.517-.683-1.517-1.517v-2.168c0-.835.683-1.517 1.517-1.517"/>
            <path fill="#FFAC4D" d="M116.737 121.26c-.23.545-.771.93-1.398.93H91.992c-.626 0-1.167-.385-1.398-.93h26.143z"/>
            <path fill="#F9BC38" d="M93.28 117.042h23.347c.834 0 1.517-.682 1.517-1.517v-2.168c0-.834-.683-1.517-1.517-1.517H93.279c-.834 0-1.517.683-1.517 1.517v2.168c0 .835.683 1.517 1.517 1.517"/>
            <path fill="#FFCE45" d="M102.723 117.042L114.614 117.042 114.614 111.84 102.723 111.84z"/>
            <path fill="#FDD25A" d="M93.28 111.84h.897v5.202h-.898c-.834 0-1.517-.682-1.517-1.517v-2.168c0-.834.683-1.517 1.517-1.517"/>
            <path fill="#FFAC4D" d="M118.024 116.113c-.231.545-.771.929-1.398.929H93.28c-.626 0-1.167-.384-1.398-.929h26.143z"/>
            <path fill="#F9BC38" d="M92.636 111.894h23.347c.834 0 1.517-.682 1.517-1.517v-2.167c0-.835-.683-1.518-1.517-1.518H92.636c-.835 0-1.517.683-1.517 1.518v2.167c0 .835.682 1.517 1.517 1.517"/>
            <path fill="#FFCE45" d="M102.08 111.894L113.97 111.894 113.97 106.692 102.08 106.692z"/>
            <path fill="#FDD25A" d="M92.636 106.692h.898v5.202h-.898c-.835 0-1.517-.682-1.517-1.517v-2.167c0-.835.682-1.518 1.517-1.518"/>
            <path fill="#FFAC4D" d="M117.38 110.966c-.23.544-.77.928-1.397.928H92.636c-.626 0-1.167-.384-1.398-.928h26.143z"/>
            <path fill="url(#prefix__H)" d="M91.67 106.747h23.348c.834 0 1.517-.683 1.517-1.517v-2.168c0-.835-.683-1.517-1.517-1.517H91.67c-.835 0-1.518.682-1.518 1.517v2.168c0 .834.683 1.517 1.518 1.517"/>
            <path fill="#FFCE45" d="M101.114 106.747L113.005 106.747 113.005 101.545 101.114 101.545zM91.67 101.545h.898v5.202h-.897c-.835 0-1.518-.683-1.518-1.517v-2.168c0-.834.683-1.517 1.518-1.517"/>
            <path fill="#FFAC4D" d="M116.416 105.818c-.232.544-.772.929-1.398.929H91.67c-.627 0-1.167-.385-1.398-.93h26.143z"/>
            <path fill="url(#prefix__H)" d="M91.992 101.6h23.348c.834 0 1.517-.684 1.517-1.518v-2.168c0-.834-.683-1.517-1.517-1.517H91.992c-.835 0-1.517.683-1.517 1.517v2.168c0 .834.682 1.517 1.517 1.517"/>
            <path fill="#FFCE45" d="M101.436 101.599L113.327 101.599 113.327 96.397 101.436 96.397zM91.992 96.397h.898v5.202h-.898c-.834 0-1.517-.683-1.517-1.517v-2.168c0-.834.683-1.517 1.517-1.517"/>
            <path fill="#FFAC4D" d="M116.737 100.67c-.23.545-.771.93-1.398.93H91.992c-.626 0-1.167-.385-1.398-.93h26.143z"/>
            <path fill="url(#prefix__I)" d="M113.088 96.452c.834 0 1.517-.683 1.517-1.518v-2.167c0-.835-.683-1.518-1.517-1.518H89.74c-.834 0-1.517.683-1.517 1.518v2.167c0 .835.683 1.518 1.517 1.518h23.348z"/>
            <path fill="#FFCE45" d="M99.185 96.451L111.075 96.451 111.075 91.249 99.185 91.249zM89.74 91.25h.898v5.202h-.898c-.834 0-1.517-.683-1.517-1.518v-2.167c0-.835.683-1.517 1.517-1.517"/>
            <path fill="#FFAC4D" d="M114.485 95.523c-.231.544-.772.929-1.398.929H89.74c-.626 0-1.167-.385-1.398-.93h26.143z"/>
            <path fill="url(#prefix__H)" d="M92.958 91.304h23.347c.834 0 1.517-.683 1.517-1.517v-2.168c0-.834-.683-1.517-1.517-1.517H92.958c-.835 0-1.518.683-1.518 1.517v2.168c0 .834.683 1.517 1.518 1.517"/>
            <path fill="#FFCE45" d="M102.402 91.304L114.292 91.304 114.292 86.102 102.402 86.102zM92.958 86.102h.897v5.202h-.897c-.835 0-1.518-.683-1.518-1.517v-2.168c0-.834.683-1.517 1.518-1.517"/>
            <path fill="#FFAC4D" d="M117.702 90.375c-.23.545-.771.929-1.397.929H92.958c-.627 0-1.168-.384-1.398-.929h26.142z"/>
            <path fill="#FFA03F" d="M101.122 112.55c-.052.067-.093.116-.122.148l-.055.057c-.063.06-.129.117-.201.166-.075.05-.152.09-.232.126-.024.011-.048.02-.073.03-.057.021-.114.04-.174.055.813.025 1.47.694 1.47 1.512v2.168c0 .208-.042.407-.12.588l-.002.006c-.034.08-.077.154-.123.226-.015.023-.03.043-.046.065-.038.052-.079.101-.123.148-.018.02-.035.039-.054.057-.063.06-.13.117-.202.167l-.002.001c-.072.049-.15.09-.23.125l-.073.03c-.061.023-.124.043-.189.058-.026.006-.051.013-.078.018.702.13 1.243.75 1.243 1.491v2.167c0 .209-.043.408-.12.589l-.003.006c-.034.08-.077.154-.123.226-.015.023-.03.043-.046.065-.038.052-.079.101-.123.148l-.054.057c-.063.06-.13.117-.202.167-.074.05-.151.09-.231.126l-.074.029c-.061.023-.124.043-.189.058-.026.007-.051.014-.078.019-.074.014-.15.022-.228.024.657.167 1.149.76 1.149 1.467v2.167c0 .209-.043.407-.12.589 0 .002-.002.004-.003.005-.034.08-.076.155-.123.226-.014.023-.03.044-.046.065-.038.053-.079.102-.122.149-.018.02-.036.038-.055.056-.063.061-.129.118-.201.167-.075.05-.152.09-.232.126l-.073.03c-.062.023-.124.043-.19.059-.025.005-.05.013-.078.017-.09.017-.18.028-.275.028H76.55c-.094 0-.185-.011-.275-.028-.026-.004-.052-.012-.078-.017-.065-.016-.128-.036-.189-.06-.025-.009-.05-.018-.073-.029-.08-.036-.157-.076-.23-.124-.075-.051-.14-.108-.204-.169-.019-.018-.036-.037-.054-.056-.044-.047-.085-.096-.122-.149-.01-.013-.022-.024-.032-.038l-.014-.027c-.047-.071-.09-.146-.124-.226l-.003-.005c-.076-.182-.119-.38-.119-.589v-2.167c0-.209.043-.408.12-.59.077-.18.188-.344.326-.482.264-.264.626-.428 1.025-.44-.06-.016-.118-.034-.175-.056-.024-.01-.049-.019-.073-.03-.08-.035-.157-.075-.228-.124-.076-.05-.142-.108-.205-.168l-.054-.057c-.044-.047-.085-.096-.122-.148-.01-.014-.023-.025-.032-.039-.006-.008-.01-.018-.014-.026-.047-.072-.09-.147-.124-.226-.08-.187-.122-.386-.122-.595v-2.167c0-.208.042-.408.12-.589.076-.181.188-.345.326-.482.213-.215.492-.362.8-.419h-.004l-.078-.02c-.065-.014-.128-.034-.19-.058-.024-.01-.049-.018-.073-.029-.08-.036-.157-.076-.228-.125l-.003-.001c-.073-.05-.139-.106-.202-.167-.019-.018-.036-.038-.054-.057-.044-.047-.085-.096-.122-.148-.01-.014-.023-.025-.032-.038-.006-.009-.01-.019-.014-.027-.047-.072-.09-.146-.124-.226-.08-.187-.122-.386-.122-.594v-2.168c0-.208.042-.407.12-.589.076-.18.188-.345.326-.482.19-.191.434-.327.703-.395-.078-.003-.154-.01-.229-.024l-.078-.019c-.065-.015-.128-.035-.189-.059-.025-.01-.05-.018-.073-.029-.08-.035-.157-.076-.23-.124-.075-.051-.14-.108-.204-.168l-.054-.057c-.044-.047 25.691-.17 25.676-.149z"/>
            <path fill="url(#prefix__J)" d="M73.654 127.981H97c.835 0 1.517-.683 1.517-1.517v-2.168c0-.835-.682-1.517-1.517-1.517H73.654c-.835 0-1.517.682-1.517 1.517v2.168c0 .834.682 1.517 1.517 1.517"/>
            <path fill="#FFCE45" d="M83.098 127.981L94.988 127.981 94.988 122.779 83.098 122.779zM73.654 122.779h.897v5.202h-.897c-.835 0-1.517-.683-1.517-1.517v-2.168c0-.834.682-1.517 1.517-1.517"/>
            <path fill="#FFAC4D" d="M98.399 127.052c-.231.544-.772.93-1.398.93H73.654c-.626 0-1.167-.386-1.398-.93h26.143z"/>
            <path fill="url(#prefix__H)" d="M73.975 122.833h23.348c.834 0 1.517-.682 1.517-1.517v-2.168c0-.834-.683-1.517-1.517-1.517H73.975c-.834 0-1.517.683-1.517 1.517v2.168c0 .835.683 1.517 1.517 1.517"/>
            <path fill="#FFCE45" d="M83.419 122.833L95.31 122.833 95.31 117.631 83.419 117.631zM73.975 117.631h.898v5.202h-.898c-.834 0-1.517-.682-1.517-1.517v-2.168c0-.834.683-1.517 1.517-1.517"/>
            <path fill="#FFAC4D" d="M98.72 121.904c-.23.545-.771.93-1.398.93H73.976c-.627 0-1.167-.385-1.399-.93h26.144z"/>
            <path fill="url(#prefix__H)" d="M73.975 117.686h23.348c.834 0 1.517-.683 1.517-1.518v-2.167c0-.835-.683-1.517-1.517-1.517H73.975c-.834 0-1.517.682-1.517 1.517v2.167c0 .835.683 1.518 1.517 1.518"/>
            <path fill="#FFCE45" d="M83.419 117.685L95.31 117.685 95.31 112.483 83.419 112.483zM73.975 112.484h.898v5.202h-.898c-.834 0-1.517-.683-1.517-1.518v-2.167c0-.835.683-1.517 1.517-1.517"/>
            <path fill="#FFAC4D" d="M98.72 116.757c-.23.544-.771.929-1.398.929H73.976c-.627 0-1.167-.385-1.399-.93h26.144z"/>
            <g>
                <path fill="url(#prefix__H)" d="M1.517 5.202h23.347c.835 0 1.518-.682 1.518-1.517V1.517C26.382.683 25.699 0 24.864 0H1.517C.683 0 0 .683 0 1.517v2.168c0 .835.683 1.517 1.517 1.517" transform="scale(-1 1) rotate(-61 40.922 175.676)"/>
                <path fill="#FFCE45" d="M10.961 5.202L22.852 5.202 22.852 0 10.961 0zM1.517 0h.898v5.202h-.898C.683 5.202 0 4.52 0 3.685V1.517C0 .683.683 0 1.517 0" transform="scale(-1 1) rotate(-61 40.922 175.676)"/>
            </g>
            <path fill="#6A51C7" d="M167.097 109.78c-1.933.553 1.447 8.187 2.965 9.644 1.519 1.456 10.264-2.523 10.264-2.523l-1.017-1.94-7.488 1.372s-.839-3.037-1.707-4.631c-.867-1.594-1.685-2.303-3.017-1.922"/>
            <path fill="url(#prefix__K)" d="M175.689 100.598c.263 1.975-.15 3.019-.886 3.878-.965 1.127-2.883 1.4-4.533 1.4-2.908 0-5.265-1.97-5.265-4.398 0-2.429 2.357-4.685 5.265-4.685 2.908 0 5.155 1.83 5.419 3.805"/>
            <path fill="url(#prefix__L)" d="M175.459 103.394s-.499 1.203-.32 2.298c.18 1.095.899 1.06.899 1.06-.355.237-1.579-.122-1.595-1.486-.015-1.364.643-2.464.643-2.464l.373.592z"/>
            <path fill="url(#prefix__M)" d="M166.267 108.83c.35-.35 1.986-5.195 1.986-5.195s-.782-1.564-.042-2.157c.74-.592 1.616.995 1.616.995l5.42-.812s-.412 3.848-2.51 5.945c-.837.837-1.784.56-2.622-.073-.367.839-.954 2.154-1.4 3.046-.7 1.399-2.797-1.399-2.448-1.748"/>
            <path fill="url(#prefix__N)" d="M181.849 124.861s3.187-.956 4.462 0c1.274.956.318 2.231-.638 2.869-.956.637-4.94-.16-4.94-.16l1.116-2.709z"/>
            <path fill="url(#prefix__O)" d="M189.421 124.621L190.123 126.206 191.65 127.116 193.072 125.339 191.638 123.586z"/>
            <path fill="url(#prefix__P)" d="M192.07 123.905l-2.181 1.788-7.118-6.773-7.774 5.941s-4.894-.319-6.807-1.275c-1.912-.956 4.644-4.519 7.831-6.43 3.187-1.913 4.78-3.507 7.649-2.87 2.869.638 8.4 9.619 8.4 9.619"/>
            <g transform="translate(161.424 121.328)">
                <mask id="prefix__S" fill="#fff">
                    <use xlink:href="#prefix__Q"/>
                </mask>
                <path fill="url(#prefix__R)" d="M.346 1.302c0 2.23 1.913 4.143 5.418 5.1 3.506.955 9.243.636 11.792.318 2.55-.319 3.825-.957 3.825-3.187 0-2.231-3.187-2.55-7.012-2.869-3.824-.318-5.418 0-7.33 0-1.125 0-3.242-.551-4.795-.551C1.157.113.346.383.346 1.302" mask="url(#prefix__S)"/>
            </g>
            <path fill="url(#prefix__T)" d="M198.33 128.048h-8.286s-.637-.637 0-2.072c1.172 1.249 2.869-.796 2.869-.796s3.506 0 5.099.956c1.594.956.797 1.912.319 1.912"/>
            <path fill="url(#prefix__U)" d="M166.804 107.672s-2.165.935-3.44 3.166-2.056 8.651-1.506 11.337 8.49-.279 8.49-.279 1.678-4.308 1.04-6.54c-.637-2.23-2.202-5.759-2.202-5.759l-2.382-1.925z"/>
            <path fill="url(#prefix__V)" d="M165.514 99.588s-.657-1.701-2.38-1.871c-1.724-.17-4.022.598-3.806 3.032.215 2.434 2.549 5.235 2.37 6.456-.18 1.22-.259 1.436-.776 2.082.596.395 2.419-.764 2.75-2.729.332-1.964 1.616-5.601 1.616-5.601l.226-1.37z"/>
            <path fill="url(#prefix__W)" d="M172.68 101.199s-1.286 1.506-1.783 3.17c-.497 1.665.29 1.945.29 1.945-.528.18-1.603-.906-.762-2.882.84-1.976 2.23-3.261 2.23-3.261l.025 1.028z"/>
            <path fill="url(#prefix__X)" d="M180.367 115.763c.28.109.597-.03.706-.31l2.402-6.166c.108-.28-.03-.597-.31-.706-.28-.109-.598.03-.707.31l-2.402 6.166c-.109.28.031.597.31.706"/>
            <path fill="url(#prefix__Y)" d="M182.218 113.293c-.339-.243-1.49.102-2.583.845-1.094.744-1.105 1.39-1.105 1.39l-1.309.429.542 1.656 1.678-.549s.896.016 1.878-.614c.983-.63.428-2.102.428-2.102s.81-.812.471-1.055"/>
            <mask id="prefix__ab" fill="#fff">
                <use xlink:href="#prefix__Z"/>
            </mask>
            <path fill="url(#prefix__aa)" d="M165.335 110.37c-1.931.552.662 9.495 2.181 10.952 1.518 1.456 10.787-3.57 10.787-3.57l-1.017-1.94-7.538 2.12s-.783-3.683-1.651-5.277c-.749-1.375-1.27-2.363-2.254-2.363-.157 0-.325.025-.508.077" mask="url(#prefix__ab)"/>
        </g>
    </g>
</svg>
